<?xml version="1.0" encoding="utf-8"?>
<!-- Generator: Adobe Illustrator 21.1.0, SVG Export Plug-In . SVG Version: 6.00 Build 0)  -->
<svg version="1.1" id="Capa_1" xmlns="http://www.w3.org/2000/svg" xmlns:xlink="http://www.w3.org/1999/xlink" x="0px" y="0px"
	 viewBox="0 0 45 45" style="enable-background:new 0 0 45 45;" xml:space="preserve">
<style type="text/css">
	.st0{display:none;}
	.st1{display:inline;fill:#022A3A;}
	.st2{display:inline;fill:#82BC00;}
	.st3{fill:#82BC00;}
	.st4{fill:#022A3A;}
</style>
<g class="st0">
	<path class="st1" d="M9.3,0.3C9,0.3,8.6,0.4,8.4,0.7C8.1,0.9,8,1.2,8,1.6v38.1c0,0.3,0.1,0.7,0.4,0.9C8.6,40.9,9,41,9.3,41h28.3
		c0.3,0,0.7-0.1,0.9-0.4c0.2-0.2,0.4-0.6,0.4-0.9c0-9.9,0-19.7,0-29.6c0-0.4-0.2-0.8-0.4-1l-8.9-8.5c-0.2-0.2-0.5-0.4-0.9-0.4
		C22.3,0.3,15.8,0.3,9.3,0.3z M10.6,2.9h16.9v7.2c0,0.3,0.1,0.7,0.4,0.9c0.2,0.2,0.6,0.4,0.9,0.4h7.6c0,9,0,18,0,27H10.6V2.9z
		 M30.1,4.7l4.3,4.1h-4.3V4.7z"/>
	<path class="st1" d="M22.5,32.4L22.5,32.4L22.5,32.4z"/>
	<path class="st2" d="M29.5,21.4L29.5,21.4L29.5,21.4l-7.9,1.5c-0.4,0.4-0.7,0.7-1.1,1.1c-0.6,0.9-1.8,1.3-2.8,0.8
		c-0.4-0.3-0.8-0.6-1.1-1l-4,0.7c-0.2,0-0.3,0.2-0.3,0.4l1.6,8.4c0,0.2,0.2,0.3,0.4,0.3l16.9-3.2c0.2,0,0.3-0.2,0.3-0.4l-1.6-8.4
		C29.8,21.5,29.7,21.4,29.5,21.4z M29.2,22.1l0.6,3.1c-1.7,0.3-3.4-0.8-3.7-2.5L29.2,22.1z M32,23.6L32,23.6l-1.2,0.2
		c0,0.2,0.1,0.5,0.1,0.7l0.8-0.1l0.6,3.1c-0.3,0.1-0.5,0.1-0.8,0c0.1,0.6,0.2,1.2,0.3,1.7c0.2-0.1,0.5-0.2,0.8-0.3l0.6,3.1l-3.1,0.6
		c-0.1-0.5-0.1-1,0.1-1.5c-1.4,0.3-2.8,0.5-4.2,0.8c-0.2,0.2-0.5,0.3-0.9,0.4l0.1,0.5c0,0.1-0.1,0.2-0.2,0.3c-0.1,0-0.2-0.1-0.3-0.2
		l-0.1-0.5c-0.3,0-0.5,0-0.8-0.1l-0.1,0c-1.4,0.3-2.8,0.5-4.2,0.8c0.3,0.4,0.5,0.8,0.6,1.3L17,35.1l-0.3-1.4c-0.2,0-0.5,0.1-0.7,0.1
		l0.3,1.7c0,0.2,0.2,0.3,0.4,0.3l16.9-3.2c0.2,0,0.3-0.2,0.3-0.4l-1.6-8.4c0-0.1-0.1-0.2-0.2-0.3L32,23.6L32,23.6z M21.2,24l0.2,0.2
		l0.1,0.5c0.3,0,0.5,0,0.7,0c0.2,0,0.4,0.1,0.6,0.3c0.1,0.1,0.2,0.2,0.3,0.3c0.1,0.1,0.1,0.2,0.2,0.3c0,0.1,0,0.2-0.1,0.3
		c-0.1,0.1-0.2,0.2-0.3,0.2c-0.2,0-0.4-0.1-0.5-0.3c-0.1-0.3-0.4-0.5-0.7-0.5l0,0l0.3,1.5l0,0c0.3,0,0.6,0.1,0.8,0.1
		c0.2,0,0.4,0.1,0.5,0.2c0.2,0.1,0.3,0.2,0.4,0.4c0.1,0.2,0.2,0.4,0.2,0.6c0.1,0.3,0,0.6-0.1,0.8c-0.1,0.3-0.2,0.5-0.5,0.7
		c-0.2,0.2-0.6,0.4-0.9,0.4l0.1,0.5c0,0.1-0.1,0.2-0.2,0.3c-0.1,0-0.2-0.1-0.3-0.2l-0.1-0.5c-0.3,0-0.5,0-0.8-0.1
		c-0.2-0.1-0.4-0.2-0.6-0.3c-0.2-0.1-0.3-0.3-0.4-0.4c-0.1-0.2-0.2-0.3-0.2-0.5c0-0.1,0-0.2,0.1-0.3c0.1-0.1,0.2-0.2,0.3-0.2l0.3,0
		l0.2,0.2c0.1,0.2,0.2,0.3,0.3,0.4c0.1,0.1,0.2,0.2,0.3,0.3c0.1,0.1,0.2,0.1,0.4,0.1h0l-0.3-1.7c-0.3,0-0.6-0.1-0.9-0.1
		c-0.2-0.1-0.4-0.2-0.6-0.4c-0.2-0.2-0.3-0.4-0.4-0.8c-0.1-0.4,0-0.8,0.2-1.1c0.2-0.3,0.6-0.6,1.1-0.7L21,24.3
		C21,24.1,21.1,24,21.2,24L21.2,24L21.2,24z M16.2,24.6c0.3,1.7-0.8,3.4-2.5,3.7L13,25.2L16.2,24.6z M21.3,25.5
		c-0.2,0.1-0.3,0.2-0.4,0.3c-0.1,0.1-0.1,0.3-0.1,0.5c0,0.2,0.1,0.3,0.2,0.4c0.1,0.1,0.3,0.1,0.5,0.2L21.3,25.5L21.3,25.5z
		 M30.1,26.8l0.6,3.1l-3.1,0.6C27.2,28.7,28.4,27.1,30.1,26.8z M22.2,27.9l0.3,1.6l0,0c0.2-0.1,0.4-0.2,0.5-0.4
		c0.1-0.2,0.1-0.4,0.1-0.6c0-0.2-0.1-0.4-0.3-0.5C22.7,28,22.5,27.9,22.2,27.9L22.2,27.9L22.2,27.9z M14.4,29.7h0.2
		c1.5,0,2.8,1.1,3.1,2.6l-3.1,0.6l-0.6-3.1C14.1,29.8,14.2,29.7,14.4,29.7z"/>
	<path class="st1" d="M18.6,13.1c-0.6,0-1.1,0.5-1.1,1.2v6.3l-1.8-1.8c-0.2-0.2-0.5-0.3-0.8-0.3c-0.6,0-1.1,0.5-1.1,1.1
		c0,0.3,0.1,0.6,0.3,0.8l3.5,3.6c0.5,0.5,1.5,0.5,2,0l3.5-3.6c0.5-0.4,0.5-1.2,0-1.6c-0.4-0.5-1.2-0.5-1.6,0l0,0l-1.8,1.8v-6.3
		C19.8,13.6,19.3,13.1,18.6,13.1L18.6,13.1z"/>
</g>
<g class="st0">
	<path class="st2" d="M35.2,17.4L35.2,17.4l-0.1,0L26.9,19c-0.1,0.7-0.3,1.5-0.5,2.2c-0.3,0.8-0.6,1.6-1.1,2.4l0.1,0.1
		c0.1,0.2,0.2,0.4,0.2,0.5c0,0.2,0,0.4-0.1,0.5c-0.1,0.2-0.3,0.3-0.5,0.3c-0.3,0-0.5,0-0.6-0.2c-0.3,0.4-0.6,0.7-0.9,1.1l0,0.2l0,0
		c0.5,0,0.9,0.1,1.2,0.1s0.6,0.2,0.8,0.3c0.3,0.2,0.5,0.4,0.7,0.6s0.3,0.6,0.4,0.9c0.1,0.4,0.1,0.9-0.1,1.3s-0.4,0.8-0.7,1.1
		c-0.4,0.3-0.9,0.5-1.4,0.7l0.2,0.8c0,0.2-0.1,0.4-0.3,0.4c-0.2,0-0.4-0.1-0.4-0.3l-0.2-0.8c-0.4,0-0.8,0-1.2-0.1
		c-0.4-0.1-0.7-0.2-0.9-0.4c-0.3-0.2-0.5-0.4-0.6-0.6s-0.3-0.5-0.3-0.7c0-0.2,0-0.4,0.1-0.5c0.1-0.2,0.3-0.3,0.5-0.3
		c0.2,0,0.3,0,0.5,0c0.1,0.1,0.2,0.2,0.3,0.3c0.2,0.3,0.3,0.5,0.4,0.7s0.2,0.3,0.4,0.4s0.4,0.2,0.7,0.2h0l-0.5-2.6
		c-0.5,0-0.9-0.1-1.2-0.2c-2,1.4-4.3,2.3-6.8,2.4c-1.9,0.1-3.8-0.2-5.5-1l1.4,7.3c0.1,0.3,0.4,0.5,0.6,0.4l26.2-4.9
		c0.3-0.1,0.5-0.4,0.4-0.6l-2.5-13.1C35.7,17.6,35.5,17.4,35.2,17.4L35.2,17.4z M34.8,18.6l0.9,4.8c-2.7,0.5-5.2-1.3-5.7-3.9
		L34.8,18.6z M39.1,20.9L39.1,20.9l-1.8,0.3c0.1,0.4,0.1,0.7,0.2,1.1l1.2-0.2l0.9,4.8C39.2,27,38.8,27,38.4,27
		c0.2,0.9,0.3,1.8,0.5,2.7c0.4-0.2,0.8-0.3,1.2-0.4l0.9,4.8L36.2,35c-0.1-0.8-0.1-1.6,0.1-2.3c-2.2,0.4-4.3,0.8-6.5,1.2
		c-0.4,0.3-0.8,0.5-1.3,0.7l0.2,0.8c0,0.2-0.1,0.4-0.3,0.4c-0.2,0-0.4-0.1-0.4-0.3l-0.2-0.8c-0.4,0-0.8,0-1.2-0.1l-0.2-0.1
		c-2.2,0.4-4.4,0.8-6.5,1.2c0.4,0.6,0.8,1.3,0.9,2.1l-4.8,0.9l-0.4-2.2c-0.4,0.1-0.7,0.1-1.1,0.2l0.5,2.7c0.1,0.3,0.4,0.5,0.6,0.4
		l26.2-4.9c0.3-0.1,0.5-0.4,0.4-0.6l-2.5-13.1c0-0.2-0.2-0.3-0.3-0.4L39.1,20.9L39.1,20.9L39.1,20.9z M36.2,25.8l0.9,4.8l-4.8,0.9
		C31.7,28.9,33.5,26.3,36.2,25.8z M23.9,27.6l0.5,2.5l0,0c0.4-0.1,0.6-0.4,0.8-0.6c0.2-0.3,0.2-0.6,0.2-0.9
		c-0.1-0.3-0.2-0.6-0.4-0.7C24.6,27.7,24.3,27.6,23.9,27.6L23.9,27.6L23.9,27.6z M11.9,30.4l0.1,0c2.3,0,4.3,1.7,4.7,4L12,35.3
		l-0.9-4.8c0.2,0,0.5-0.1,0.7-0.1L11.9,30.4z"/>
	<path class="st1" d="M7.9,0.2c-0.4,0-0.8,0.3-1,0.6C6.8,1.2,6.9,1.6,7.1,1.9l3.6,3.7C10.9,5.8,11.2,6,11.5,6h6
		c0.3,0,0.6-0.1,0.8-0.3l3.5-3.7C22,1.6,22.1,1.2,22,0.8c-0.2-0.4-0.6-0.6-1-0.6H7.9L7.9,0.2z M9.4,7c-0.2,0-0.4,0-0.5,0.1
		C5.4,9.1,3,12.9,3,17.2c0,6.3,5.1,11.4,11.5,11.4c6.3,0,11.5-5.1,11.5-11.4c0-4.3-2.4-8.1-5.9-10C19.8,7.1,19.7,7,19.5,7H9.4z"/>
</g>
<g>
	<path class="st3" d="M16.5,6.9h10c0.9,0,1.6,0.7,1.6,1.6s-0.7,1.6-1.6,1.6h-10c-0.9,0-1.6-0.7-1.6-1.6S15.6,6.9,16.5,6.9z"/>
	<path class="st4" d="M8,0.6c-1.7,0-3,1.4-3,3v20.8c0,1.7,1.4,3,3,3h11c-0.1-0.5-0.1-1.1,0.1-1.6c0.1-0.1,0.2-0.3,0.2-0.5H8
		c-0.5,0-0.9-0.4-0.9-0.9V3.7c0-0.5,0.4-0.9,0.9-0.9H35c0.5,0,0.9,0.4,0.9,0.9v20.8c0,0.5-0.4,0.9-0.9,0.9h-0.2
		c0.1,0.3,0.2,0.6,0.3,0.8c0.2,0.4,0.2,0.9,0,1.3c1.6-0.1,2.9-1.4,2.9-3V3.7c0-1.7-1.4-3-3-3H8z"/>
	<path class="st3" d="M11.4,15h20.2c0.4,0,0.8,0.4,0.8,0.8s-0.4,0.8-0.8,0.8H11.4c-0.4,0-0.8-0.4-0.8-0.8S11,15,11.4,15z"/>
	<path class="st3" d="M11.4,12h20.2c0.4,0,0.8,0.4,0.8,0.8s-0.4,0.8-0.8,0.8H11.4c-0.4,0-0.8-0.4-0.8-0.8S11,12,11.4,12z"/>
	<path class="st3" d="M11.4,18.7c-0.4,0-0.8,0.4-0.8,0.8c0,0.4,0.4,0.8,0.8,0.8H21l0.1-0.2c0.1-0.5,0.3-1,0.6-1.4H11.4z"/>
	<path class="st4" d="M27.1,17.6c-0.3,0-0.6,0.1-0.9,0.3l-0.8,0.6c-0.3,0.2-0.6,0.3-0.9,0.3l-0.9,0c-0.7,0-1.2,0.4-1.4,1.1l-0.3,0.9
		c-0.1,0.3-0.3,0.6-0.6,0.8L20.5,22c-0.5,0.4-0.8,1.1-0.6,1.7l0.3,0.9c0.1,0.3,0.1,0.6,0,0.9L20,26.4c-0.2,0.6,0,1.3,0.6,1.7
		l0.8,0.5c0.3,0.2,0.5,0.5,0.6,0.8l0.3,0.9c0.2,0.6,0.8,1.1,1.4,1.1l0.9,0c0.3,0,0.6,0.1,0.9,0.3l0.8,0.6c0.5,0.4,1.3,0.4,1.8,0
		l0.8-0.6c0.3-0.2,0.6-0.3,0.9-0.3l0.9,0c0.7,0,1.2-0.4,1.4-1.1l0.3-0.9c0.1-0.3,0.3-0.6,0.6-0.8l0.8-0.5c0.5-0.4,0.8-1.1,0.6-1.7
		l-0.3-0.9c-0.1-0.3-0.1-0.6,0-0.9l0.3-0.9c0.2-0.6,0-1.3-0.6-1.7l-0.8-0.5c-0.3-0.2-0.5-0.5-0.6-0.8L32,19.8
		c-0.2-0.6-0.8-1.1-1.4-1.1l-0.9,0c-0.3,0-0.6-0.1-0.9-0.3L28,17.9C27.7,17.7,27.4,17.6,27.1,17.6z M27.1,19.9
		c2.8,0,5.2,2.3,5.2,5.2s-2.3,5.2-5.2,5.2s-5.2-2.3-5.2-5.2S24.2,19.9,27.1,19.9z"/>
	<path class="st4" d="M22.5,31.6l-3,7.1l0,0.3l0.3,0.1l3.4-1.3l2,1.3l0.2,0l0.1-0.2l0.7-6.1c-0.2-0.1-0.4-0.2-0.6-0.4l-0.1-0.1l0,0
		c-0.3-0.3-0.7-0.5-1.2-0.5C23.7,32,23,32,22.5,31.6L22.5,31.6z M31.7,31.6c-0.6,0.4-1.5,0.2-2.2,0.3c-0.6,0.1-1,0.6-1.5,0.9
		l0.7,6.1l0.1,0.2l0.2,0l2-1.3l3.4,1.3l0.3-0.1l0-0.3L31.7,31.6z"/>
	<path class="st4" d="M26.3,21.3c-0.2,0-0.4,0.2-0.4,0.4v2.1h-2.1c-0.2,0-0.4,0.2-0.4,0.4v1.6c0,0.2,0.2,0.4,0.4,0.4h2.1v2.1
		c0,0.2,0.2,0.4,0.4,0.4h1.6c0.2,0,0.4-0.2,0.4-0.4v-2.1h2.1c0.2,0,0.4-0.2,0.4-0.4v-1.6c0-0.2-0.2-0.4-0.4-0.4h-2.1v-2.1
		c0-0.2-0.2-0.4-0.4-0.4H26.3z"/>
</g>
</svg>
