<?xml version="1.0" encoding="utf-8"?>
<!-- Generator: Adobe Illustrator 21.0.2, SVG Export Plug-In . SVG Version: 6.00 Build 0)  -->
<svg version="1.1" id="Layer_1" xmlns="http://www.w3.org/2000/svg" xmlns:xlink="http://www.w3.org/1999/xlink" x="0px" y="0px"
	 viewBox="0 0 45 45" style="enable-background:new 0 0 45 45;" xml:space="preserve">
<style type="text/css">
	.st0{display:none;fill:none;stroke:#000000;stroke-miterlimit:10;}
	.st1{display:none;fill:#A2A2A2;}
	.st2{fill:#A2A2A2;}
	.st3{display:none;}
	.st4{display:inline;fill:#A2A2A2;}
</style>
<path class="st0" d="M22.5,22.5"/>
<path class="st0" d="M22.5,22.5"/>
<path class="st1" d="M34.2,21.6C28,15.4,21.8,9.3,15.7,3.2c-0.9-0.9-1.7-1.7-2.6-2.6c-1.4-1.4-3.6,0.8-2.2,2.2
	C17,8.9,23.2,15,29.4,21.1c0.5,0.5,1,1,1.5,1.5c-5.8,5.7-11.6,11.4-17.4,17c-0.9,0.9-1.7,1.7-2.6,2.6c-1.4,1.4,0.8,3.6,2.2,2.2
	c6.2-6,12.3-12.1,18.5-18.1c0.9-0.9,1.7-1.7,2.6-2.6C34.8,23.2,34.8,22.1,34.2,21.6z"/>
<path class="st2" d="M22.5,44.6c-0.3-0.5-0.6-1-0.9-1.5c-2.7-4.3-5.5-8.6-8.2-13c-1.5-2.5-3-5-4.5-7.5c-0.8-1.4-1.2-2.9-1.4-4.5
	c-0.5-2.8-0.2-5.6,0.9-8.2c2.2-5.1,6-8.3,11.4-9.3c6.8-1.3,13.7,2.2,16.6,8.5c1.7,3.6,1.9,7.4,0.7,11.2c-0.4,1.4-1.2,2.6-1.9,3.9
	c-4,6.8-8.3,13.4-12.5,20C22.6,44.4,22.6,44.5,22.5,44.6z M29.2,15.8c0-3.8-3-6.8-6.7-6.8c-3.7,0-6.7,3-6.8,6.7
	c0,3.5,2.7,6.7,6.6,6.8C26.1,22.6,29.2,19.6,29.2,15.8z"/>
<path class="st1" d="M13,32c9.6,9.6,21.4,13.3,27.1,7.6c0.8-0.8,1.4-1.7,1.8-2.7c0.3-0.6,0.3-1.2,0.3-1.8l-0.4-2.6
	c-0.2-1.2-1.1-2.2-2.2-2.5l-7.4-2c-1.1-0.3-2.2,0-3,0.8L27.2,31c-0.7,0.7-1.7,0.8-2.5,0.2c-2-1.4-4-3.1-5.9-5s-3.6-3.9-5-5.9
	c-0.5-0.8-0.4-1.8,0.2-2.5l2.1-2.1c0.8-0.8,1.1-1.9,0.8-3l-2-7.4c-0.3-1.2-1.3-2-2.5-2.2L9.9,2.8C9.3,2.7,8.7,2.8,8.1,3
	c-1,0.5-1.9,1.1-2.7,1.8C-0.3,10.6,3.4,22.4,13,32z"/>
<path class="st1" d="M41.1,13.9c0,2.4-1.9,2.7-2.9,2.7c-1,0-3,0-4.4,0c-2.2,0-3.1-1.2-3.1-2.8c0-1.6,0.2-4-8.1-4s-8.1,2.4-8.1,4
	c0,1.6-1,2.8-3.1,2.8c-1.5,0-3.4,0-4.4,0c-1,0-2.9-0.2-2.9-2.7c0-2.7,0-9.3,18.6-9.3S41.1,11.2,41.1,13.9z M35.8,37.1
	c0,0.4-0.3,0.7-0.7,0.7H15.9v-4c0-1.5-1.2-2.7-2.7-2.7h-4V17.9H6.6v13.5c0,0.7,0.3,1.4,0.8,1.9l6.4,6.4c0.5,0.5,1.2,0.8,1.9,0.8
	h20.1c1.5,0,2.7-1.2,2.7-2.7V17.9h-2.7V37.1z M13.2,24.2c0,0.2,0.1,0.3,0.3,0.3h17.9c0.2,0,0.3-0.1,0.3-0.3v-0.7
	c0-0.2-0.1-0.3-0.3-0.3H13.5c-0.2,0-0.3,0.1-0.3,0.3V24.2z M13.2,21.5c0,0.2,0.1,0.3,0.3,0.3h17.9c0.2,0,0.3-0.1,0.3-0.3v-0.7
	c0-0.2-0.1-0.3-0.3-0.3H13.5c-0.2,0-0.3,0.1-0.3,0.3V21.5z M13.5,19.2h17.9c0.2,0,0.3-0.1,0.3-0.3v-0.7c0-0.2-0.1-0.3-0.3-0.3H13.5
	c-0.2,0-0.3,0.1-0.3,0.3v0.7C13.2,19.1,13.4,19.2,13.5,19.2z M13.2,26.8c0,0.2,0.1,0.3,0.3,0.3h17.9c0.2,0,0.3-0.1,0.3-0.3v-0.7
	c0-0.2-0.1-0.3-0.3-0.3H13.5c-0.2,0-0.3,0.1-0.3,0.3V26.8z M31.8,31.4c0-0.2-0.1-0.3-0.3-0.3H20.2c-0.2,0-0.3,0.1-0.3,0.3v0.7
	c0,0.2,0.1,0.3,0.3,0.3h11.3c0.2,0,0.3-0.1,0.3-0.3V31.4z M31.5,33.8H20.2c-0.2,0-0.3,0.1-0.3,0.3v0.7c0,0.2,0.1,0.3,0.3,0.3h11.3
	c0.2,0,0.3-0.1,0.3-0.3v-0.7C31.8,33.9,31.6,33.8,31.5,33.8z"/>
<g class="st3">
	<path class="st4" d="M22,24.1L3.6,8.5h37.8L23,24.1C22.7,24.3,22.3,24.3,22,24.1z"/>
	<polygon class="st4" points="5.2,31.8 1.8,34.7 1.8,10.3 16.2,22.5 	"/>
	<path class="st4" d="M36.6,32.3l4.9,4.2H3.6l5.5-4.7l9-7.6l2.4,2l1.5,1.3c0.3,0.2,0.7,0.2,0.9,0l1.5-1.3l2.4-2L36.6,32.3z"/>
	<polygon class="st4" points="43.2,10.3 43.2,34.6 40.5,32.3 28.9,22.5 	"/>
</g>
</svg>
