<?xml version="1.0" encoding="utf-8"?>
<!-- Generator: Adobe Illustrator 22.0.0, SVG Export Plug-In . SVG Version: 6.00 Build 0)  -->
<svg version="1.1" id="Layer_1" xmlns="http://www.w3.org/2000/svg" xmlns:xlink="http://www.w3.org/1999/xlink" x="0px" y="0px"
	 viewBox="0 0 45 45" style="enable-background:new 0 0 45 45;" xml:space="preserve">
<style type="text/css">
	.st0{display:none;}
	.st1{display:inline;fill:none;}
	.st2{display:inline;fill:#921E30;}
	.st3{display:none;fill:#EA8215;}
	.st4{display:none;fill:#00206F;}
	.st5{fill:#1F3C6E;}
	.st6{fill:#152342;}
</style>
<g class="st0">
	<path class="st1" d="M22.6,6C13.4,6,6,13.3,5.9,22.5c-0.1,9.4,7.2,16.9,16.5,17c9.4,0.1,16.9-7.3,16.9-16.6
		C39.3,13.5,31.9,6,22.6,6z"/>
	<path class="st2" d="M22.5,0C10.1,0,0,10.1,0,22.5C0,34.9,10.1,45,22.5,45S45,34.9,45,22.5C45,10.1,34.9,0,22.5,0z M22.4,39.4
		c-9.3-0.1-16.6-7.6-16.5-17C6,13.3,13.4,6,22.6,6c9.3,0,16.7,7.5,16.7,16.8C39.3,32.1,31.8,39.5,22.4,39.4z"/>
</g>
<path class="st3" d="M22.5,0C10.1,0,0,10.1,0,22.5S10.1,45,22.5,45S45,34.9,45,22.5S34.9,0,22.5,0z M5.9,22.5C6,13.3,13.4,6,22.6,6
	c9.3,0,16.7,7.5,16.7,16.8c0,9.3-7.5,16.7-16.9,16.6C13.1,39.4,5.8,31.9,5.9,22.5z"/>
<path class="st4" d="M22.5,0.1C10.2,0.1,0.1,10.1,0.1,22.5S10.2,45,22.5,45S45,34.9,45,22.5S34.9,0.1,22.5,0.1z M5.9,22.5
	C6,13.3,13.4,6,22.6,6.1c9.3,0,16.7,7.4,16.6,16.8c0,9.3-7.5,16.6-16.8,16.6C13.2,39.3,5.9,31.8,5.9,22.5z"/>
<path class="st5" d="M22.5,0C10.1,0,0,10.1,0,22.5S10.1,45,22.5,45S45,34.9,45,22.5S34.9,0,22.5,0z M5.9,22.5
	C5.9,13.3,13.4,6,22.6,6c9.3,0,16.7,7.5,16.7,16.8c0,9.3-7.5,16.7-16.9,16.6C13.1,39.4,5.8,31.8,5.9,22.5z"/>
<path class="st6" d="M22.5,0C10.1,0,0,10.1,0,22.5S10.1,45,22.5,45S45,34.9,45,22.5S34.9,0,22.5,0z M5.9,22.5
	C5.9,13.3,13.4,6,22.6,6c9.3,0,16.7,7.5,16.7,16.8c0,9.3-7.5,16.7-16.9,16.6C13.1,39.4,5.8,31.8,5.9,22.5z"/>
</svg>
