<?xml version="1.0" encoding="utf-8"?>
<!-- Generator: Adobe Illustrator 22.0.0, SVG Export Plug-In . SVG Version: 6.00 Build 0)  -->
<svg version="1.1" id="Layer_1" xmlns="http://www.w3.org/2000/svg" xmlns:xlink="http://www.w3.org/1999/xlink" x="0px" y="0px"
	 viewBox="0 0 200 37.8" style="enable-background:new 0 0 200 37.8;" xml:space="preserve">
<style type="text/css">
	.st0{display:none;fill:#EA8215;}
	.st1{display:none;fill:#00206F;}
	.st2{display:none;fill:#921E30;}
	.st3{display:none;fill:#1F3C6E;}
	.st4{display:none;fill:#152342;}
	.st5{fill:#6E8CB2;}
</style>
<path class="st0" d="M0,36.8c0.6-0.8,1.3-1.6,1.8-2.4c6.6-10.7,13.3-21.3,19.8-32c0.9-1.5,1.9-2.2,3.8-2.2
	c57.4,0.1,114.8,0,172.1,0.1c0.7,0,1.4,0.1,2.5,0.1c-0.6,1.1-1.1,2-1.6,2.9c-6.4,10.5-12.8,20.9-19.2,31.4c-0.5,0.9-1,1.8-1.5,2.7
	c-58.4,0-116.8,0-175.2,0C1.7,37.3,0.8,37,0,36.8z"/>
<path class="st1" d="M0,36.8c0.6-0.8,1.3-1.6,1.8-2.4c6.6-10.7,13.3-21.3,19.8-32c0.9-1.5,1.9-2.2,3.8-2.2
	c57.4,0.1,114.8,0,172.1,0.1c0.7,0,1.4,0.1,2.5,0.1c-0.6,1.1-1.1,2-1.6,2.9c-6.4,10.5-12.8,20.9-19.2,31.4c-0.5,0.9-1,1.8-1.5,2.7
	c-58.4,0-116.8,0-175.2,0C1.7,37.3,0.8,37,0,36.8z"/>
<path class="st2" d="M0,36.8c0.6-0.8,1.3-1.6,1.8-2.4c6.6-10.7,13.3-21.3,19.8-32c0.9-1.5,1.9-2.2,3.8-2.2
	c57.4,0.1,114.8,0,172.1,0.1c0.7,0,1.4,0.1,2.5,0.1c-0.6,1.1-1.1,2-1.6,2.9c-6.4,10.5-12.8,20.9-19.2,31.4c-0.5,0.9-1,1.8-1.5,2.7
	c-58.4,0-116.8,0-175.2,0C1.7,37.3,0.8,37,0,36.8z"/>
<path class="st3" d="M0.2,36.8C0.8,36,1.4,35.2,2,34.4C8.6,23.7,15.2,13.1,21.8,2.4c0.9-1.5,1.9-2.2,3.7-2.2
	c57.2,0.1,114.5,0,171.7,0c0.7,0,1.4,0.1,2.5,0.1c-0.6,1.1-1.1,2-1.6,2.9c-6.4,10.4-12.8,20.9-19.1,31.3c-0.5,0.9-1,1.8-1.5,2.7
	c-58.3,0-116.5,0-174.8,0C1.8,37.3,1,37,0.2,36.8z"/>
<path class="st4" d="M0.2,36.8C0.8,36,1.4,35.2,2,34.4C8.6,23.7,15.2,13.1,21.8,2.4c0.9-1.5,1.9-2.2,3.7-2.2
	c57.2,0.1,114.5,0,171.7,0c0.7,0,1.4,0.1,2.5,0.1c-0.6,1.1-1.1,2-1.6,2.9c-6.4,10.4-12.8,20.9-19.1,31.3c-0.5,0.9-1,1.8-1.5,2.7
	c-58.3,0-116.5,0-174.8,0C1.8,37.3,1,37,0.2,36.8z"/>
<path class="st5" d="M0.2,36.8C0.8,36,1.4,35.2,2,34.4C8.6,23.7,15.2,13.1,21.8,2.4c0.9-1.5,1.9-2.2,3.7-2.2
	c57.2,0.1,114.5,0,171.7,0c0.7,0,1.4,0.1,2.5,0.1c-0.6,1.1-1.1,2-1.6,2.9c-6.4,10.4-12.8,20.9-19.1,31.3c-0.5,0.9-1,1.8-1.5,2.7
	c-58.3,0-116.5,0-174.8,0C1.8,37.3,1,37,0.2,36.8z"/>
</svg>
