<?xml version="1.0" encoding="utf-8"?>
<!-- Generator: Adobe Illustrator 22.0.0, SVG Export Plug-In . SVG Version: 6.00 Build 0)  -->
<svg version="1.1" id="Layer_1" xmlns="http://www.w3.org/2000/svg" xmlns:xlink="http://www.w3.org/1999/xlink" x="0px" y="0px"
	 viewBox="0 0 52.6 50" style="enable-background:new 0 0 52.6 50;" xml:space="preserve">
<style type="text/css">
	.st0{display:none;}
	.st1{display:inline;fill:#464542;}
	.st2{fill:#00206F;}
	.st3{fill:#9E3C41;}
	.st4{fill:#EA8215;}
	.st5{display:none;fill:#464542;}
	.st6{display:inline;fill:#152342;}
	.st7{display:inline;fill:#6E8CB2;}
	.st8{display:inline;fill:#1F3C6E;}
	.st9{display:inline;fill:#A6A6A8;}
	.st10{display:inline;fill:#88898C;}
	.st11{display:inline;fill:#636569;}
	.st12{display:none;fill:none;stroke:#88898C;stroke-width:0.5;stroke-miterlimit:10;}
	.st13{fill:#464542;}
</style>
<g>
	<g class="st0">
		<path class="st1" d="M32.6,28.1c-1.1,0-2,0.4-2.7,1.1l-1.1-0.7c0.5-1.1,0.9-2.3,0.9-3.6c0-1.2-0.3-2.3-0.7-3.4l1-0.6
			c0.7,0.7,1.6,1.1,2.7,1.1c2.1,0,3.9-1.7,3.9-3.9c0-2.1-1.7-3.9-3.9-3.9c-2.1,0-3.9,1.7-3.9,3.9c0,0.5,0.1,1,0.3,1.4L28,20.1
			c-1.4-1.9-3.5-3.1-6-3.3v-1.3c1.7-0.4,3-1.9,3-3.8c0-2.1-1.7-3.9-3.9-3.9c-2.1,0-3.9,1.7-3.9,3.9c0,1.8,1.3,3.4,3,3.8v1.3
			c-2.3,0.3-4.4,1.6-5.6,3.5l-1-0.7c0.2-0.5,0.3-1,0.3-1.6c0-2.1-1.7-3.9-3.9-3.9c-2.1,0-3.9,1.7-3.9,3.9c0,2.1,1.7,3.9,3.9,3.9
			c1,0,1.8-0.4,2.5-0.9l1.2,0.8c-0.4,0.9-0.6,1.9-0.6,3c0,1.3,0.3,2.5,0.8,3.5l-0.9,1c-0.7-0.7-1.7-1.1-2.8-1.1
			c-2.1,0-3.9,1.7-3.9,3.9c0,2.1,1.7,3.9,3.9,3.9c2.1,0,3.9-1.7,3.9-3.9c0-0.5-0.1-0.9-0.2-1.3l1.2-0.8c1.3,1.6,3.1,2.8,5.3,3.1v1.3
			c-1.7,0.4-3,1.9-3,3.8c0,2.1,1.7,3.9,3.9,3.9c2.1,0,3.9-1.7,3.9-3.9c0-1.8-1.3-3.4-3-3.8v-1.2c2.3-0.2,4.4-1.3,5.8-3.1l1.1,0.7
			c-0.2,0.4-0.2,0.9-0.2,1.3c0,2.1,1.7,3.9,3.9,3.9c2.1,0,3.9-1.7,3.9-3.9C36.5,29.9,34.7,28.1,32.6,28.1 M32.6,16
			c1.2,0,2.2,1,2.2,2.2s-1,2.2-2.2,2.2s-2.2-1-2.2-2.2C30.4,17,31.4,16,32.6,16 M10.2,20.3c-1.2,0-2.2-1-2.2-2.2C8,17,9,16,10.2,16
			s2.2,1,2.2,2.2C12.4,19.4,11.4,20.3,10.2,20.3 M10.2,34.2C9,34.2,8,33.2,8,32s1-2.2,2.2-2.2s2.2,1,2.2,2.2S11.4,34.2,10.2,34.2
			 M19.1,11.8c0-1.2,1-2.2,2.2-2.2s2.2,1,2.2,2.2s-1,2.2-2.2,2.2C20,13.9,19.1,13,19.1,11.8 M23.4,38.1c0,1.2-1,2.2-2.2,2.2
			s-2.2-1-2.2-2.2s1-2.2,2.2-2.2C22.4,35.9,23.4,36.9,23.4,38.1 M21.5,31.4c-3.5,0-6.4-2.9-6.4-6.4s2.9-6.4,6.4-6.4s6.4,2.9,6.4,6.4
			S25,31.4,21.5,31.4 M32.6,34.2c-1.2,0-2.2-1-2.2-2.2c0-0.2,0-0.4,0.1-0.5l0.7-1.1c0.4-0.3,0.8-0.5,1.4-0.5c1.2,0,2.2,1,2.2,2.2
			C34.7,33.2,33.8,34.2,32.6,34.2"/>
		<path class="st1" d="M21.4,3.6C9.6,3.6,0,13.2,0,25s9.6,21.4,21.4,21.4S42.8,36.8,42.8,25S33.2,3.6,21.4,3.6 M21.4,44.6
			C10.5,44.6,1.7,35.8,1.7,25S10.5,5.3,21.4,5.3C32.2,5.3,41,14.1,41,25C41,35.8,32.2,44.6,21.4,44.6"/>
	</g>
	<g>
		<rect x="0" y="48.2" class="st2" width="13.1" height="1.6"/>
		<rect x="41.3" y="48.2" class="st3" width="11.3" height="1.6"/>
		<polygon class="st4" points="13.3,49.8 27.4,49.8 41.3,49.8 41.3,48.2 27.4,48.2 13.3,48.2 		"/>
	</g>
	<g class="st0">
		<path class="st1" d="M21.5,3.8C9.6,3.8,0,13.4,0,25.3s9.6,21.5,21.5,21.5S43,37.2,43,25.3S33.4,3.8,21.5,3.8 M41.3,24.8h-4.7
			c-0.2-3.6-1.7-6.9-4-9.4l3.5-3.5C39.2,15.3,41.1,19.8,41.3,24.8 M31.3,14.2c-2.4-2.1-5.5-3.4-8.9-3.6V5.5
			c4.8,0.2,9.1,2.1,12.4,5.1L31.3,14.2z M21.5,19.2c3.6,0,6.4,2.9,6.4,6.4c0,3.6-2.9,6.4-6.4,6.4c-3.6,0-6.4-2.9-6.4-6.4
			S18,19.2,21.5,19.2 M26.4,19.1c-1.1-0.8-2.5-1.4-4-1.6v-5.3c2.9,0.2,5.6,1.3,7.8,3.1L26.4,19.1z M20.6,17.5
			c-4.1,0.4-7.3,3.9-7.3,8.1c0,4.5,3.7,8.2,8.2,8.2c4.2,0,7.7-3.2,8.1-7.3h5.3c-0.4,7-6.3,12.6-13.4,12.6c-7.4,0-13.5-6-13.5-13.5
			c0-7.1,5.6-13,12.6-13.4C20.6,12.2,20.6,17.5,20.6,17.5z M29.6,24.8c-0.2-1.7-0.9-3.3-2-4.5l3.7-3.7c2,2.2,3.4,5.1,3.6,8.3
			L29.6,24.8L29.6,24.8z M21.5,45C10.6,45,1.7,36.2,1.7,25.3C1.7,14.6,10.1,6,20.6,5.5v5.1c-7.9,0.5-14.2,7-14.2,15.1
			c0,8.3,6.8,15.1,15.1,15.1c8,0,14.6-6.3,15.1-14.2h4.7C40.6,36.8,32,45,21.5,45"/>
	</g>
	<path class="st5" d="M26.3,1C14.4,1,4.8,10.6,4.8,22.5S14.4,44,26.3,44s21.5-9.6,21.5-21.5S38.2,1,26.3,1 M26.3,2.7
		c6.2,0,11.7,2.8,15.3,7.2c-0.1,0-0.3,0-0.4,0.1l-4.5,1.9c-2.8-2.6-6.5-4.1-10.4-4.1c-8.3,0-15.1,6.8-15.1,15.1
		c0,2.6,0.7,5.1,1.9,7.3l-2.9,3.7c-2.3-3.2-3.7-7.2-3.7-11.4C6.5,11.6,15.4,2.7,26.3,2.7 M19.9,22.8c0-3.6,2.9-6.4,6.4-6.4
		c3.6,0,6.4,2.9,6.4,6.4c0,3.6-2.9,6.4-6.4,6.4C22.8,29.3,19.9,26.4,19.9,22.8 M29.2,15.2c-0.9-0.4-1.9-0.5-2.9-0.5
		c-4.5,0-8.2,3.7-8.2,8.2c0,0.3,0,0.6,0.1,0.9l0,0l-3.9,5c-0.9-1.8-1.4-3.9-1.4-5.9c0-7.4,6-13.5,13.5-13.5c3.3,0,6.3,1.1,8.7,3.2
		L29.6,15C29.4,15,29.3,15.1,29.2,15.2 M18.7,25.8c0.6,1.6,1.7,2.9,3.1,3.8L13,33L18.7,25.8z M23.7,30.7c0.1,0,0.1,0,0.1-0.1
		c0.8,0.3,1.6,0.4,2.5,0.4c4.5,0,8.2-3.7,8.2-8.2c0-0.3,0-0.6-0.1-0.9c0.1-0.1,0.3-0.1,0.3-0.3l3.5-5c1,1.9,1.5,4,1.5,6.1
		c0,7.4-6,13.5-13.5,13.5c-3.2,0-6.3-1.1-8.7-3.2L23.7,30.7z M37.4,15.1L37.4,15.1C37.3,15.1,37.3,15.1,37.4,15.1L34,19.9
		c-0.6-1.5-1.6-2.8-2.9-3.8l8.1-3.5L37.4,15.1z M26.3,42.2c-5.9,0-11.3-2.6-14.9-6.8l4.4-1.7c2.8,2.7,6.5,4.2,10.4,4.2
		c8.3,0,15.1-6.8,15.1-15.1c0-2.7-0.7-5.3-2.1-7.6l2.8-4c0.1-0.1,0.1-0.2,0.1-0.4c2.4,3.3,3.8,7.3,3.8,11.6
		C46.1,33.4,37.2,42.2,26.3,42.2"/>
</g>
<g class="st0">
	<rect x="49.6" class="st6" width="3" height="13"/>
	<rect x="49.6" y="38.9" class="st7" width="3" height="11.1"/>
	<polygon class="st8" points="49.6,13 49.6,26 49.6,38.9 52.6,38.9 52.6,26 52.6,13 	"/>
</g>
<path class="st5" d="M24.1,4C14.6,4,6.5,10.2,3.7,18.9H3.6c0,0.1,0,0.1,0,0.2c-0.6,2-1,4.2-1,6.4C2.6,37.4,12.2,47,24.1,47
	s21.5-9.6,21.5-21.5S36,4,24.1,4 M24.1,5.7c5.1,0,9.7,1.9,13.2,5.1c-5.2-1.2-9.6-0.7-13.3,1.5c-6.4,3.8-7.9,11.4-7.9,11.7l0,0
	c-0.1,0.6-0.2,1.2-0.2,1.8c0,3.1,1.8,5.9,4.4,7.2c-2.2,0-4.9-0.4-7.4-1.8c-3.7-2-6.3-6-7.6-11.8C7.9,11.5,15.3,5.7,24.1,5.7
	 M30.5,25.9c0,3.6-2.9,6.4-6.4,6.4c-3.6,0-6.4-2.9-6.4-6.4c0-3.6,2.9-6.4,6.4-6.4C27.7,19.4,30.5,22.3,30.5,25.9 M4.3,25.5
	c0-1,0.1-1.9,0.2-2.8c1.6,4.7,4.1,8.1,7.6,10.1c2.8,1.6,5.7,2,8.1,2c3.3,0,5.8-0.9,6-0.9v-0.1c3.3-0.9,5.8-3.9,6-7.5
	c0.8,1.7,1.3,3.7,1.3,5.9c0,4.5-2.4,8.9-7.1,13c-0.8,0.1-1.6,0.1-2.3,0.1C13.2,45.3,4.3,36.4,4.3,25.5 M29.4,44.5
	c3.8-3.9,5.8-8.1,5.8-12.4c0-7.5-5.7-12.6-6-12.9l-0.1,0.1c-1.4-1.1-3.1-1.7-5-1.7c-1.5,0-2.9,0.4-4.2,1.2c1.1-1.8,2.7-3.8,5-5.1
	c3.8-2.3,8.7-2.5,14.6-0.6c2.7,3.4,4.4,7.7,4.4,12.4C43.9,34.5,37.8,42.2,29.4,44.5"/>
<g class="st0">
	<path class="st1" d="M36.4,31.7c0.9-1.8,1.4-3.9,1.4-6.1c0-7.3-5.7-13.2-12.8-13.7V9h-1.7v2.9c-7.2,0.5-12.8,6.4-12.8,13.7
		c0,2.2,0.5,4.3,1.4,6.1l-3.4,2l0.9,1.5l3.4-2c2.5,3.7,6.6,6.1,11.4,6.1c4.7,0,8.9-2.4,11.4-6.1l3.4,2l0.9-1.5L36.4,31.7z
		 M24.1,19.2c3.6,0,6.4,2.9,6.4,6.4c0,3.6-2.9,6.4-6.4,6.4c-3.6,0-6.4-2.9-6.4-6.4S20.6,19.2,24.1,19.2 M12.1,25.6
		c0-6.3,4.9-11.5,11.1-11.9v3.8c-4.1,0.4-7.3,3.9-7.3,8.1c0,1.2,0.3,2.3,0.7,3.3l-3.3,1.9C12.6,29.3,12.1,27.5,12.1,25.6 M24.1,37.6
		c-4.1,0-7.7-2.1-9.9-5.2l3.3-1.9c1.5,2,3.9,3.4,6.6,3.4s5.1-1.3,6.6-3.3l3.3,1.9C31.8,35.5,28.2,37.6,24.1,37.6 M34.9,30.9l-3.3-2
		c0.5-1,0.7-2.1,0.7-3.3c0-4.2-3.2-7.7-7.3-8.1v-3.8c6.2,0.5,11.1,5.6,11.1,11.9C36.1,27.5,35.6,29.3,34.9,30.9"/>
	<path class="st1" d="M24.1,3.7c-11.9,0-21.5,9.7-21.5,21.5c0,11.9,9.6,21.5,21.5,21.5s21.5-9.6,21.5-21.5
		C45.6,13.4,36,3.7,24.1,3.7 M24.1,45C13.2,45,4.3,36.1,4.3,25.2S13.2,5.4,24.1,5.4s19.8,8.9,19.8,19.8S35,45,24.1,45"/>
</g>
<g class="st0">
	<path class="st9" d="M24.1,4.1c5-0.1,9.5,1.5,13.4,4.7c5.5,4.5,8.2,10.4,8.1,17.5c-0.2,9.8-7.8,18.6-17.4,20.4
		c-1.4,0.2-2.7,0.4-4.1,0.3c0-1.8,0-3.5,0-5.3c1-0.1,2-0.1,3-0.4c6.6-1.4,11-5.4,12.6-11.9c1.6-6.6-0.4-12.2-5.6-16.6
		c-2.9-2.4-6.3-3.4-10-3.5C24.1,7.6,24.1,5.9,24.1,4.1z"/>
	<path class="st10" d="M24.1,41.7c0,1.8,0,3.5,0,5.3c-6.3,0-11.5-2.4-15.7-6.9c-3.6-3.8-5.5-8.4-5.8-13.6c0-0.3-0.1-0.6,0.1-1
		c1.7,0,3.5,0,5.2,0C7.9,25.7,8,25.8,8,26c0.2,5,2.2,9,6.1,12.2C17,40.6,20.4,41.6,24.1,41.7z"/>
	<path class="st11" d="M7.9,25.5c-1.7,0-3.5,0-5.2,0c-0.2-2.6,0.4-5,1.2-7.4c3-8.2,11.3-14.1,19.7-14c0.1,0,0.3,0,0.4,0
		c0,1.7,0,3.5,0,5.2c-0.2,0-0.5,0-0.7,0.1c-6.1,0.4-10.7,3.3-13.7,8.7C8.5,20.4,8.1,22.9,7.9,25.5z"/>
</g>
<line class="st12" x1="52.6" y1="6" x2="52.6" y2="46"/>
<g class="st0">
	<path class="st1" d="M26.5,0.8C14.6,0.8,5,10.4,5,22.3s9.6,21.5,21.5,21.5S48,34.2,48,22.3S38.4,0.8,26.5,0.8 M46.3,21.8h-4.7
		c-0.2-3.6-1.7-6.9-4-9.4l3.5-3.5C44.2,12.3,46.1,16.8,46.3,21.8 M36.3,11.2c-2.4-2.1-5.5-3.4-8.9-3.6V2.5c4.8,0.2,9.1,2.1,12.4,5.1
		L36.3,11.2z M26.5,16.2c3.6,0,6.4,2.9,6.4,6.4c0,3.6-2.9,6.4-6.4,6.4c-3.6,0-6.4-2.9-6.4-6.4S23,16.2,26.5,16.2 M31.4,16.1
		c-1.1-0.8-2.5-1.4-4-1.6V9.2c2.9,0.2,5.6,1.3,7.8,3.1L31.4,16.1z M25.6,14.5c-4.1,0.4-7.3,3.9-7.3,8.1c0,4.5,3.7,8.2,8.2,8.2
		c4.2,0,7.7-3.2,8.1-7.3h5.3c-0.4,7-6.3,12.6-13.4,12.6c-7.4,0-13.5-6-13.5-13.5c0-7.1,5.6-13,12.6-13.4
		C25.6,9.2,25.6,14.5,25.6,14.5z M34.6,21.8c-0.2-1.7-0.9-3.3-2-4.5l3.7-3.7c2,2.2,3.4,5.1,3.6,8.3L34.6,21.8L34.6,21.8z M26.5,42
		C15.6,42,6.7,33.2,6.7,22.3C6.7,11.6,15.1,3,25.6,2.5v5.1c-7.9,0.5-14.2,7-14.2,15.1c0,8.3,6.8,15.1,15.1,15.1
		c8,0,14.6-6.3,15.1-14.2h4.7C45.6,33.8,37,42,26.5,42"/>
</g>
<g>
	<path class="st13" d="M37.6,25.1c-1.1,0-2,0.4-2.7,1.1l-1.1-0.7c0.5-1.1,0.9-2.3,0.9-3.6c0-1.2-0.3-2.3-0.7-3.4l1-0.6
		c0.7,0.7,1.6,1.1,2.7,1.1c2.1,0,3.9-1.7,3.9-3.9c0-2.1-1.7-3.9-3.9-3.9c-2.1,0-3.9,1.7-3.9,3.9c0,0.5,0.1,1,0.3,1.4L33,17.1
		c-1.4-1.9-3.5-3.1-6-3.3v-1.3c1.7-0.4,3-1.9,3-3.8c0-2.1-1.7-3.9-3.9-3.9c-2.1,0-3.9,1.7-3.9,3.9c0,1.8,1.3,3.4,3,3.8v1.3
		c-2.3,0.3-4.4,1.6-5.6,3.5l-1-0.7c0.2-0.5,0.3-1,0.3-1.6c0-2.1-1.7-3.9-3.9-3.9c-2.1,0-3.9,1.7-3.9,3.9c0,2.1,1.7,3.9,3.9,3.9
		c1,0,1.8-0.4,2.5-0.9l1.2,0.8c-0.4,0.9-0.6,1.9-0.6,3c0,1.3,0.3,2.5,0.8,3.5l-0.9,1c-0.7-0.7-1.7-1.1-2.8-1.1
		c-2.1,0-3.9,1.7-3.9,3.9c0,2.1,1.7,3.9,3.9,3.9c2.1,0,3.9-1.7,3.9-3.9c0-0.5-0.1-0.9-0.2-1.3l1.2-0.8c1.3,1.6,3.1,2.8,5.3,3.1v1.3
		c-1.7,0.4-3,1.9-3,3.8c0,2.1,1.7,3.9,3.9,3.9c2.1,0,3.9-1.7,3.9-3.9c0-1.8-1.3-3.4-3-3.8v-1.2c2.3-0.2,4.4-1.3,5.8-3.1l1.1,0.7
		c-0.2,0.4-0.2,0.9-0.2,1.3c0,2.1,1.7,3.9,3.9,3.9c2.1,0,3.9-1.7,3.9-3.9C41.5,26.9,39.7,25.1,37.6,25.1 M37.6,13
		c1.2,0,2.2,1,2.2,2.2s-1,2.2-2.2,2.2s-2.2-1-2.2-2.2C35.4,14,36.4,13,37.6,13 M15.2,17.3c-1.2,0-2.2-1-2.2-2.2c0-1.1,1-2.1,2.2-2.1
		s2.2,1,2.2,2.2C17.4,16.4,16.4,17.3,15.2,17.3 M15.2,31.2c-1.2,0-2.2-1-2.2-2.2s1-2.2,2.2-2.2s2.2,1,2.2,2.2S16.4,31.2,15.2,31.2
		 M24.1,8.8c0-1.2,1-2.2,2.2-2.2s2.2,1,2.2,2.2s-1,2.2-2.2,2.2C25,10.9,24.1,10,24.1,8.8 M28.4,35.1c0,1.2-1,2.2-2.2,2.2
		s-2.2-1-2.2-2.2s1-2.2,2.2-2.2C27.4,32.9,28.4,33.9,28.4,35.1 M26.5,28.4c-3.5,0-6.4-2.9-6.4-6.4s2.9-6.4,6.4-6.4s6.4,2.9,6.4,6.4
		S30,28.4,26.5,28.4 M37.6,31.2c-1.2,0-2.2-1-2.2-2.2c0-0.2,0-0.4,0.1-0.5l0.7-1.1c0.4-0.3,0.8-0.5,1.4-0.5c1.2,0,2.2,1,2.2,2.2
		C39.7,30.2,38.8,31.2,37.6,31.2"/>
	<path class="st13" d="M26.4,0.6C14.6,0.6,5,10.2,5,22s9.6,21.4,21.4,21.4S47.8,33.8,47.8,22S38.2,0.6,26.4,0.6 M26.4,41.6
		C15.5,41.6,6.7,32.8,6.7,22S15.5,2.3,26.4,2.3C37.2,2.3,46,11.1,46,22C46,32.8,37.2,41.6,26.4,41.6"/>
</g>
</svg>
