<?xml version="1.0" encoding="utf-8"?>
<!-- Generator: Adobe Illustrator 22.0.0, SVG Export Plug-In . SVG Version: 6.00 Build 0)  -->
<svg version="1.1" id="Layer_1" xmlns="http://www.w3.org/2000/svg" xmlns:xlink="http://www.w3.org/1999/xlink" x="0px" y="0px"
	 viewBox="0 0 100 100" style="enable-background:new 0 0 100 100;" xml:space="preserve">
<style type="text/css">
	.st0{display:none;}
	.st1{display:inline;fill:#464542;}
	.st2{fill:#464542;}
</style>
<g class="st0">
	<path class="st1" d="M76,57.3c-2.5,0-4.7,1-6.3,2.6l-2.6-1.6c1.3-2.5,2-5.4,2-8.4c0-2.8-0.6-5.4-1.7-7.8l2.4-1.4
		c1.6,1.5,3.8,2.5,6.2,2.5c5,0,9-4.1,9-9c0-5-4.1-9-9-9c-5,0-9,4.1-9,9c0,1.2,0.2,2.2,0.6,3.3l-2.2,1.3c-3.2-4.3-8.2-7.3-13.9-7.7
		l0-3c4-0.9,7.1-4.5,7.1-8.8c0-5-4.1-9-9-9c-5,0-9,4.1-9,9c0,4.3,3,7.9,7.1,8.8l0,3.1c-5.5,0.8-10.2,3.8-13.1,8.2l-2.3-1.6
		c0.5-1.1,0.8-2.4,0.8-3.7c0-5-4.1-9-9-9c-5,0-9,4.1-9,9c0,5,4.1,9,9,9c2.2,0,4.3-0.8,5.9-2.2l2.9,1.9c-0.9,2.2-1.4,4.5-1.4,7
		c0,3,0.7,5.7,1.9,8.2l-2.9,1.9c-1.6-1.7-3.9-2.7-6.4-2.7c-5,0-9,4.1-9,9c0,5,4.1,9,9,9c5,0,9-4.1,9-9c0-1.1-0.2-2.1-0.5-3l2.8-1.8
		c3,3.8,7.3,6.5,12.3,7.1l0,3c-4,0.9-7.1,4.5-7.1,8.8c0,5,4.1,9,9,9c5,0,9-4.1,9-9c0-4.3-3-7.9-7.1-8.8l0-2.8
		c5.5-0.4,10.3-3.1,13.5-7.1l2.5,1.6c-0.4,1-0.6,2-0.6,3.1c0,5,4.1,9,9,9c5,0,9-4.1,9-9C85.1,61.3,81,57.3,76,57.3 M76,29
		c2.8,0,5,2.3,5,5c0,2.8-2.3,5-5,5c-2.8,0-5-2.3-5-5C71,31.3,73.2,29,76,29 M23.9,39c-2.8,0-5-2.3-5-5c0-2.8,2.3-5,5-5s5,2.3,5,5
		C28.9,36.8,26.6,39,23.9,39 M23.9,71.3c-2.8,0-5-2.3-5-5c0-2.8,2.3-5,5-5s5,2.3,5,5C28.9,69.1,26.6,71.3,23.9,71.3 M44.5,19.1
		c0-2.8,2.3-5,5-5c2.8,0,5,2.3,5,5c0,2.8-2.3,5-5,5C46.8,24.2,44.5,21.9,44.5,19.1 M54.6,80.4c0,2.8-2.3,5-5,5c-2.8,0-5-2.3-5-5
		c0-2.8,2.3-5,5-5C52.3,75.3,54.6,77.6,54.6,80.4 M50.2,64.8c-8.2,0-14.9-6.7-14.9-14.9c0-8.2,6.7-14.9,14.9-14.9
		c8.2,0,14.9,6.7,14.9,14.9C65.1,58.1,58.4,64.8,50.2,64.8 M76,71.3c-2.8,0-5-2.3-5-5c0-0.4,0.1-0.9,0.2-1.3l1.7-2.6
		c0.9-0.7,2-1.2,3.2-1.2c2.8,0,5,2.3,5,5C81,69.1,78.8,71.3,76,71.3"/>
	<path class="st1" d="M49.9,0C22.5,0,0.1,22.4,0.1,49.8c0,27.5,22.4,49.8,49.8,49.8s49.8-22.4,49.8-49.8C99.8,22.4,77.4,0,49.9,0
		 M49.9,95.7c-25.3,0-45.8-20.6-45.8-45.8C4.1,24.6,24.7,4,49.9,4c25.3,0,45.8,20.6,45.8,45.8C95.8,75.1,75.2,95.7,49.9,95.7"/>
</g>
<g class="st0">
	<path class="st1" d="M49.9,0C22.4,0,0,22.4,0,49.9c0,27.5,22.4,49.9,49.9,49.9c27.5,0,49.9-22.4,49.9-49.9C99.9,22.4,77.5,0,49.9,0
		 M95.8,48.8H85c-0.5-8.4-4-16.1-9.4-21.9l8.1-8.1C91,26.8,95.6,37.3,95.8,48.8 M72.7,24.2C67,19.4,59.8,16.3,52,15.9V4.1
		C63.1,4.6,73.1,9,80.8,16L72.7,24.2z M50,35.9c8.2,0,15,6.7,15,15c0,8.2-6.7,15-15,15c-8.2,0-15-6.7-15-15
		C35,42.6,41.7,35.9,50,35.9 M61.2,35.6c-2.6-2-5.8-3.3-9.3-3.6V19.7c6.8,0.4,13.1,3.1,18,7.2L61.2,35.6z M48,32
		c-9.5,1-17,9.1-17,18.9c0,10.5,8.5,19,19,19c9.8,0,17.9-7.4,18.9-17h12.3c-1,16.3-14.6,29.3-31.2,29.3c-17.2,0-31.3-14-31.3-31.3
		c0-16.6,12.9-30.1,29.2-31.2V32z M68.8,48.8c-0.4-4-2.1-7.6-4.6-10.5l8.7-8.7c4.7,5.1,7.8,11.8,8.3,19.2H68.8z M49.9,95.9
		C24.6,95.9,4,75.3,4,49.9C4,25.3,23.6,5.1,48,4.1v11.8c-18.4,1.1-33,16.3-33,35c0,19.3,15.7,35,35,35c18.7,0,33.9-14.6,35-33h10.8
		C94.3,76.8,74.3,95.9,49.9,95.9"/>
</g>
<path class="st2" d="M50,0C22.4,0,0,22.4,0,50c0,27.6,22.4,50,50,50c27.6,0,50-22.4,50-50C100,22.4,77.6,0,50,0 M50,4
	c14.3,0,27.1,6.6,35.5,16.9c-0.3,0-0.7,0-1,0.1l-10.4,4.4C67.7,19.3,59,15.8,50,15.8C30.7,15.8,15,31.6,15,50.9
	c0,6,1.5,11.9,4.4,17.1l-6.8,8.7C7.2,69.1,4,59.9,4,50C4,24.7,24.7,4,50,4 M35.1,50.9c0-8.3,6.7-15,15-15c8.3,0,15,6.7,15,15
	c0,8.3-6.7,15-15,15C41.8,65.9,35.1,59.2,35.1,50.9 M56.8,33.2c-2.1-0.8-4.4-1.3-6.8-1.3c-10.5,0-19,8.5-19,19
	c0,0.7,0.1,1.4,0.1,2.1c0,0,0,0-0.1,0.1L22,64.7c-2.1-4.3-3.2-9-3.2-13.8c0-17.3,14-31.3,31.3-31.3c7.6,0,14.7,2.6,20.3,7.5
	l-12.8,5.5C57.3,32.7,57,32.9,56.8,33.2 M32.3,57.8c1.4,3.7,3.9,6.8,7.2,8.9l-20.4,7.9L32.3,57.8z M43.9,69.2c0.1,0,0.2-0.1,0.3-0.2
	c1.8,0.6,3.8,0.9,5.8,0.9c10.5,0,19-8.5,19-19c0-0.7,0-1.4-0.1-2.1c0.3-0.1,0.6-0.3,0.8-0.6l8.2-11.5c2.3,4.4,3.5,9.3,3.5,14.3
	c0,17.3-14,31.3-31.3,31.3c-7.5,0-14.7-2.7-20.3-7.5L43.9,69.2z M75.7,33L75.7,33C75.7,33,75.7,33,75.7,33l-7.9,11.2
	c-1.4-3.6-3.8-6.6-6.8-8.8l18.8-8.1L75.7,33z M50,96c-13.8,0-26.2-6.1-34.6-15.8l10.3-4C32.3,82.5,40.9,86,50,86
	c19.3,0,35.1-15.7,35.1-35.1c0-6.3-1.7-12.4-4.8-17.7l6.6-9.3c0.2-0.3,0.3-0.6,0.3-0.9c5.5,7.6,8.8,16.9,8.8,27
	C96,75.4,75.4,96,50,96"/>
</svg>
