<?xml version="1.0" encoding="utf-8"?>
<!-- Generator: Adobe Illustrator 22.0.0, SVG Export Plug-In . SVG Version: 6.00 Build 0)  -->
<svg version="1.1" id="Layer_1" xmlns="http://www.w3.org/2000/svg" xmlns:xlink="http://www.w3.org/1999/xlink" x="0px" y="0px"
	 viewBox="0 0 45 45" style="enable-background:new 0 0 45 45;" xml:space="preserve">
<style type="text/css">
	.st0{display:none;fill:#636569;}
	.st1{fill:#636569;}
	.st2{display:none;}
	.st3{display:inline;fill:#636569;}
	.st4{display:inline;fill:#FFFFFF;}
</style>
<path class="st0" d="M45,22.6C45,34.9,35,45,22.7,45C10.2,45-0.1,34.9,0,22.3C0.1,9.8,10.2,0.1,22.4,0C35,0,45.1,10.4,45,22.6z
	 M25,38c0-4.7,0-9.4,0-14.1c1.6,0,3.1,0,4.7,0c0.2-1.9,0.5-3.6,0.7-5.4c-1.8-0.2-3.6,0.1-5.5-0.1c0-1.2,0-2.4,0-3.5
	c0-0.3,0-0.6,0.1-0.9c0.2-1,0.8-1.5,1.7-1.7c0.4-0.1,0.8-0.1,1.2-0.1c0.8,0,1.6,0,2.5,0c0-1.7,0-3.3,0-4.9c-1.9-0.2-3.6-0.4-5.4-0.1
	c-2.7,0.3-4.6,1.7-5.4,4.4c-0.3,0.9-0.4,1.8-0.4,2.8c0,1.1,0,2.2,0,3.3c0,0.2,0,0.5,0,0.8c-1.6,0-3.1,0-4.7,0c0,1.9,0,3.7,0,5.5
	c1.6,0.1,3.1,0,4.7,0.1c0.1,4.7,0,9.4,0,14.1C21.3,38,23.1,38,25,38z"/>
<path class="st1" d="M22.6,45C9.8,45,0,34.6,0,22.5C0.1,10,10.2,0,22.6,0c12.6,0.1,22.6,10.6,22.3,23C44.7,34.8,35.1,44.9,22.6,45z
	 M36.4,35.4c0-0.2,0.1-0.3,0.1-0.5c0-3.6,0-7.2,0-10.8c0-1.6-0.2-3.1-1-4.6c-0.6-1.2-1.5-2-2.7-2.5c-1.3-0.5-2.6-0.6-3.9-0.5
	c-1.7,0.2-3.2,0.9-4.3,2.3c-0.1,0.1-0.2,0.3-0.4,0.5c0-0.9-0.1-1.6-0.1-2.3c-1.9,0-3.6,0-5.4,0c0,6.1,0,12.2,0,18.4
	c1.9,0,3.8,0,5.7,0c0-0.3,0-0.6,0-0.8c0-2.7,0-5.3,0-8c0-0.7,0-1.4,0.1-2.1c0.3-2,1.5-2.9,3.5-2.8c1.3,0.1,2.1,0.7,2.4,1.9
	c0.2,0.7,0.3,1.5,0.3,2.2c0,3,0,5.9,0,8.9c0,0.3,0,0.5,0,0.8C32.6,35.4,34.5,35.4,36.4,35.4z M9.2,17.1C9,17.8,9.1,34.9,9.3,35.4
	c1.8,0,3.7,0,5.6,0c0-6.1,0-12.2,0-18.4C12.9,17.1,11.1,17.1,9.2,17.1z M12,14.5c1.8,0,3.3-1.5,3.3-3.3c0-1.8-1.5-3.4-3.4-3.4
	c-1.8,0-3.3,1.5-3.3,3.3C8.6,13,10.1,14.5,12,14.5z"/>
<path class="st0" d="M22.4,45C10,44.8-0.1,34.7,0.1,22.3C0.2,9.7,10.5-0.3,23.2,0.1c12,0.3,22.1,10.4,21.8,23.2
	C44.6,35.1,34.9,44.9,22.4,45z M8.3,32.6c0.1,0.1,0.2,0.2,0.3,0.2c3.1,1.8,6.5,2.6,10.1,2.3c3.4-0.2,6.5-1.2,9.2-3.3
	c4.5-3.4,6.8-8.1,7.2-13.7c-0.2-1.1,0.3-1.8,1.1-2.4c0.7-0.5,1.3-1.3,1.9-2.2c-1.1,0.3-2.1,0.8-3.2,0.8c1.1-0.9,2-1.8,2.4-3.2
	c-0.3,0.1-0.5,0.2-0.6,0.3c-0.8,0.3-1.7,0.6-2.5,1c-0.4,0.2-0.8,0.1-1.1-0.2c-1.4-1.2-3-1.8-4.9-1.5c-3.4,0.5-5.6,3.2-5.4,6.6
	c0,0.3,0,0.6,0,0.9c-5.2-0.4-9.3-2.6-12.7-6.5c-0.6,1.1-0.9,2.1-0.8,3.2c0.1,2,0.9,3.6,2.6,5c-1,0-1.8-0.3-2.6-0.7
	c0.2,3.1,1.8,5.1,4.7,6.1c-0.9,0.3-1.6,0.1-2.4,0.2c0.4,1.3,1.1,2.2,2.1,3c1,0.8,2.1,1.1,3.4,1.3C15.1,31.6,12.2,32.4,8.3,32.6z"/>
<g class="st2">
	<path class="st3" d="M22.3,45C9.5,44.9-0.3,34.4,0,22C0.3,9.5,10.7-0.3,23.2,0c12,0.3,22.3,10.4,21.7,23.4
		C44.5,35.5,34.4,45.1,22.3,45z M22.8,33.1c2.8-0.1,5.3-0.1,7.9-0.2c1.1,0,2.2-0.1,3.2-0.3c1.4-0.2,2.4-1,2.8-2.4
		c0.2-0.5,0.3-1,0.4-1.6c0.5-3.6,0.5-7.2,0.2-10.8c-0.1-1.1-0.2-2.1-0.6-3.2c-0.5-1.2-1.4-1.9-2.6-2.3c-0.3-0.1-0.7-0.1-1-0.2
		c-3.4-0.1-6.8-0.3-10.2-0.3c-3.6,0-7.1,0.2-10.7,0.3c-2.1,0.1-3.7,1-4.1,3.3c-0.2,0.8-0.3,1.5-0.4,2.3c-0.2,2.9-0.3,5.7-0.1,8.6
		c0.1,1.2,0.2,2.4,0.6,3.5c0.5,1.4,1.4,2.2,2.8,2.5c0.7,0.1,1.4,0.2,2,0.3C16.4,32.9,19.7,33,22.8,33.1z"/>
	<path class="st4" d="M22.8,33.1c-3.1-0.1-6.4-0.1-9.7-0.3c-0.7,0-1.4-0.1-2-0.3c-1.4-0.3-2.4-1.1-2.8-2.5c-0.4-1.2-0.5-2.4-0.6-3.5
		c-0.2-2.9-0.2-5.7,0.1-8.6c0.1-0.8,0.2-1.6,0.4-2.3c0.5-2.3,2.1-3.3,4.1-3.3c3.5-0.1,7.1-0.3,10.7-0.3c3.4,0,6.8,0.2,10.2,0.3
		c0.3,0,0.7,0.1,1,0.2c1.2,0.3,2.1,1,2.6,2.3c0.4,1,0.5,2.1,0.6,3.2c0.3,3.6,0.3,7.2-0.2,10.8c-0.1,0.5-0.2,1.1-0.4,1.6
		c-0.5,1.3-1.4,2.2-2.8,2.4c-1.1,0.2-2.1,0.2-3.2,0.3C28.1,32.9,25.5,33,22.8,33.1z M19.5,18.2c-0.2,1-0.1,7.7,0,8.3
		c2.6-1.4,5.1-2.8,7.8-4.2C24.6,20.9,22.1,19.6,19.5,18.2z"/>
	<path class="st3" d="M19.5,18.2c2.6,1.4,5.1,2.7,7.8,4.1c-2.7,1.5-5.2,2.8-7.8,4.2C19.4,25.9,19.4,19.3,19.5,18.2z"/>
</g>
<path class="st0" d="M124.6,16.3c3.4,1.8,6.7,3.5,10.1,5.3c-3.5,1.9-6.7,3.7-10.1,5.5C124.4,26.3,124.4,17.7,124.6,16.3z"/>
</svg>
