<?xml version="1.0" encoding="utf-8"?>
<!-- Generator: Adobe Illustrator 22.0.0, SVG Export Plug-In . SVG Version: 6.00 Build 0)  -->
<svg version="1.1" id="Layer_1" xmlns="http://www.w3.org/2000/svg" xmlns:xlink="http://www.w3.org/1999/xlink" x="0px" y="0px"
	 viewBox="0 0 300 45" style="enable-background:new 0 0 300 45;" xml:space="preserve">
<style type="text/css">
	.st0{display:none;}
	.st1{display:inline;fill:#7A7779;}
	.st2{display:inline;fill:#D28200;}
	.st3{display:inline;fill:#A41B21;}
	.st4{display:inline;fill:#002A64;}
	.st5{display:inline;}
	.st6{fill:#7A7779;}
	.st7{fill:#152342;}
	.st8{fill:#1F3C6E;}
	.st9{fill:#6E8CB2;}
</style>
<g class="st0">
	<path class="st1" d="M22.1,0.4c0.6,0,1.1,0,1.7,0c1.1,0,1.9,0.5,2.3,1.7C28,7.9,30,13.5,32,19.2c2.6,7.5,5.2,15,7.9,22.5
		c0,0.1,0.1,0.2,0.1,0.3c0.6,1.8,0.3,2.3-1.5,2.3c-0.8,0-1.6,0-2.4,0c-1.3,0-1.6-0.3-2-1.5c-1.1-3.1-2.1-6.3-3.2-9.4
		c-0.2-0.6-0.4-0.8-1-0.8c-5.3,0-10.6,0-15.9,0c-0.6,0-0.9,0.1-1.1,0.8c-1,3.1-2,6.2-3,9.4c-0.4,1.2-0.8,1.6-2.1,1.6
		c-0.8,0-1.5,0-2.3,0c-1.5-0.1-1.8-0.6-1.4-2.1C5,40,5.8,37.7,6.6,35.4C10.4,24.5,14.2,13.6,18,2.7c0.8-2.2,1-2.4,3.3-2.4
		C21.6,0.4,21.9,0.4,22.1,0.4C22.1,0.4,22.1,0.4,22.1,0.4z M21.9,6.6c-0.2,0.4-0.3,0.6-0.4,0.8c-2.2,6.6-4.4,13.3-6.7,19.9
		c-0.3,0.8,0,0.8,0.6,0.8c4.3,0,8.6,0,12.8,0c0.8,0,0.8-0.2,0.6-0.9c-2-5.8-4-11.6-5.9-17.4C22.6,8.8,22.3,7.8,21.9,6.6z"/>
	<path class="st2" d="M86.6,0.7c5-0.1,9.4,1.6,13.3,4.8c5.5,4.6,8.2,10.7,8.1,18c-0.2,10.1-7.7,19.2-17.3,21
		c-1.4,0.3-2.7,0.5-4.1,0.4c0-1.8,0-3.6,0-5.5c1-0.1,2-0.2,3-0.4c6.6-1.4,11-5.5,12.6-12.3c1.6-6.8-0.4-12.6-5.6-17.1
		c-2.9-2.5-6.3-3.5-9.9-3.6C86.6,4.3,86.6,2.5,86.6,0.7z"/>
	<path class="st1" d="M58.3,29.5c1.3,0.6,2.4,1.2,3.3,2.2c1.8,2.2,1.7,6.3-0.2,9.1c-1.6,2.3-3.9,3.3-6.5,3.7c-4,0.7-7.9,0-11.4-2.1
		c-0.5-0.3-0.6-0.5-0.3-1c0.5-0.9,0.9-1.8,1.3-2.7c0.3-0.6,0.5-0.6,1-0.3c2.3,1.4,4.6,2.2,7.3,2.1c1.4-0.1,2.7-0.4,3.8-1.2
		c2.5-1.9,2.3-4.9-0.4-6.3c-1.4-0.7-2.9-1.1-4.5-1.3C51.1,31.7,51,31.5,51,31c0-0.8,0-1.7,0-2.5c0-0.6,0.2-0.8,0.7-0.8
		c1.1-0.1,2.2-0.5,3.1-1.1c1-0.7,1.8-1.6,1.6-2.9c-0.2-1.4-1.1-2.2-2.5-2.6c-1.6-0.4-3.2,0-4.7,0.5c-1.1,0.4-2.2,0.8-3.3,1.3
		c-0.6,0.3-0.8,0.1-0.9-0.5c-0.2-0.9-0.4-1.7-0.7-2.6c-0.1-0.4,0-0.6,0.3-0.7c3.5-1.8,7.1-2.9,11.1-1.9c3.8,1,5.5,4.3,5.2,8.1
		c-0.1,1.2-0.8,2.1-1.5,3C59,28.7,58.7,29,58.3,29.5z"/>
	<path class="st3" d="M86.5,39.4c0,1.8,0,3.6,0,5.5c-6.2,0-11.4-2.4-15.7-7.1c-3.6-3.9-5.4-8.7-5.7-14.1c0-0.3-0.1-0.7,0.1-1
		c1.7,0,3.5,0,5.2,0c0,0.2,0.1,0.4,0.1,0.5c0.2,5.1,2.2,9.3,6,12.6C79.5,38.2,82.9,39.2,86.5,39.4z"/>
	<path class="st4" d="M70.5,22.7c-1.7,0-3.5,0-5.2,0c-0.2-2.6,0.4-5.2,1.2-7.6c3-8.5,11.3-14.6,19.7-14.4c0.1,0,0.3,0,0.4,0
		c0,1.8,0,3.6,0,5.4c-0.2,0-0.5,0-0.7,0.1c-6.1,0.4-10.7,3.4-13.6,9C71,17.5,70.6,20,70.5,22.7z"/>
	<g class="st5">
		<path class="st6" d="M140.8,36.8c0,0.9-0.1,1.6-0.3,2.4c-0.2,0.7-0.5,1.4-0.9,1.9c-0.4,0.6-0.8,1.1-1.4,1.5
			c-0.5,0.4-1.1,0.8-1.8,1.1s-1.4,0.5-2.1,0.7c-0.8,0.1-1.6,0.2-2.6,0.2h-6.8c-0.3,0-0.6-0.1-0.9-0.3c-0.3-0.2-0.4-0.6-0.4-1.1V19
			c0-0.5,0.1-0.9,0.4-1.1c0.3-0.2,0.6-0.3,0.9-0.3h6c1.6,0,2.8,0.2,3.8,0.5s1.8,0.8,2.5,1.3c0.7,0.6,1.2,1.3,1.5,2.2
			c0.3,0.9,0.5,1.8,0.5,2.9c0,0.6-0.1,1.3-0.2,1.8c-0.1,0.6-0.4,1.1-0.7,1.6c-0.3,0.5-0.7,0.9-1.1,1.3c-0.4,0.4-0.9,0.7-1.5,1
			c0.7,0.1,1.4,0.4,2,0.8c0.6,0.4,1.2,0.8,1.6,1.4c0.5,0.6,0.8,1.2,1.1,2C140.7,35.1,140.8,35.9,140.8,36.8z M135.6,24.7
			c0-0.7-0.1-1.3-0.3-1.8c-0.2-0.5-0.5-1-0.8-1.4c-0.4-0.4-0.9-0.7-1.5-0.8c-0.6-0.2-1.4-0.3-2.4-0.3H127v8.8h4
			c0.9,0,1.6-0.1,2.2-0.4s1-0.6,1.4-1c0.4-0.4,0.6-0.9,0.8-1.4C135.5,25.9,135.6,25.3,135.6,24.7z M137.2,37c0-0.8-0.1-1.5-0.4-2.1
			c-0.2-0.6-0.6-1.1-1.1-1.6s-1.1-0.7-1.8-1c-0.7-0.2-1.6-0.3-2.7-0.3H127v9.6h5c0.8,0,1.5-0.1,2.1-0.3c0.6-0.2,1.1-0.5,1.6-0.9
			c0.5-0.4,0.8-0.9,1.1-1.4C137,38.5,137.2,37.8,137.2,37z"/>
		<path class="st6" d="M159.2,44.1c0,0.2-0.1,0.3-0.2,0.4c-0.1,0.1-0.3,0.1-0.4,0.2c-0.2,0-0.5,0.1-0.8,0.1c-0.4,0-0.6,0-0.8-0.1
			c-0.2,0-0.4-0.1-0.5-0.2c-0.1-0.1-0.1-0.2-0.1-0.4v-1.9c-0.8,0.9-1.7,1.6-2.7,2.1c-1,0.5-2,0.7-3.1,0.7c-1,0-1.8-0.1-2.6-0.4
			c-0.8-0.3-1.4-0.6-2-1.1c-0.5-0.5-1-1.1-1.3-1.8c-0.3-0.7-0.5-1.5-0.5-2.4c0-1.1,0.2-2,0.6-2.8c0.4-0.8,1-1.4,1.8-1.9
			s1.7-0.9,2.9-1.2c1.1-0.3,2.4-0.4,3.8-0.4h2.5v-1.5c0-0.7-0.1-1.4-0.2-1.9c-0.1-0.6-0.4-1-0.7-1.4c-0.3-0.4-0.8-0.6-1.3-0.8
			c-0.5-0.2-1.2-0.3-1.9-0.3c-0.8,0-1.6,0.1-2.2,0.3c-0.7,0.2-1.2,0.4-1.7,0.7c-0.5,0.2-0.9,0.5-1.2,0.7c-0.3,0.2-0.6,0.3-0.7,0.3
			c-0.1,0-0.2,0-0.3-0.1s-0.2-0.1-0.2-0.3c-0.1-0.1-0.1-0.3-0.1-0.4c0-0.2,0-0.4,0-0.6c0-0.3,0-0.6,0.1-0.8c0-0.2,0.2-0.4,0.3-0.6
			c0.2-0.2,0.5-0.4,0.9-0.6c0.4-0.2,1-0.5,1.5-0.7c0.6-0.2,1.2-0.4,1.9-0.5c0.7-0.1,1.4-0.2,2.1-0.2c1.3,0,2.4,0.2,3.3,0.5
			s1.7,0.8,2.2,1.4c0.6,0.6,1,1.3,1.2,2.2c0.3,0.9,0.4,1.9,0.4,3.1V44.1z M155.9,35.5h-2.9c-0.9,0-1.7,0.1-2.4,0.2
			c-0.7,0.2-1.2,0.4-1.7,0.7c-0.4,0.3-0.8,0.7-1,1.1c-0.2,0.4-0.3,0.9-0.3,1.5c0,1,0.3,1.8,0.9,2.3c0.6,0.6,1.4,0.9,2.5,0.9
			c0.9,0,1.7-0.2,2.4-0.7c0.7-0.5,1.5-1.2,2.4-2.1V35.5z"/>
		<path class="st6" d="M178.3,41.2c0,0.2,0,0.4,0,0.6c0,0.2,0,0.3-0.1,0.4c0,0.1-0.1,0.2-0.1,0.3c0,0.1-0.2,0.2-0.3,0.4
			c-0.2,0.2-0.5,0.4-0.9,0.6c-0.4,0.3-0.9,0.5-1.4,0.7c-0.5,0.2-1.1,0.4-1.6,0.5c-0.6,0.1-1.2,0.2-1.8,0.2c-1.3,0-2.5-0.2-3.5-0.7
			s-1.9-1.1-2.5-2c-0.7-0.9-1.2-1.9-1.6-3.2c-0.4-1.3-0.5-2.7-0.5-4.3c0-1.9,0.2-3.5,0.7-4.8c0.4-1.3,1-2.4,1.8-3.3
			c0.8-0.9,1.7-1.5,2.7-1.9c1-0.4,2.1-0.6,3.3-0.6c0.6,0,1.1,0.1,1.7,0.2c0.5,0.1,1,0.3,1.5,0.4c0.5,0.2,0.9,0.4,1.2,0.6
			c0.4,0.2,0.6,0.4,0.8,0.6c0.2,0.2,0.3,0.3,0.3,0.4c0.1,0.1,0.1,0.2,0.2,0.3c0,0.1,0.1,0.3,0.1,0.5c0,0.2,0,0.4,0,0.6
			c0,0.5-0.1,0.9-0.2,1.1c-0.1,0.2-0.3,0.3-0.4,0.3c-0.2,0-0.4-0.1-0.7-0.3s-0.6-0.5-1-0.8s-0.9-0.5-1.5-0.8c-0.6-0.2-1.3-0.3-2-0.3
			c-1.6,0-2.8,0.6-3.7,1.9c-0.9,1.3-1.3,3.1-1.3,5.6c0,1.2,0.1,2.3,0.3,3.2c0.2,0.9,0.6,1.7,1,2.3c0.4,0.6,1,1.1,1.6,1.4
			c0.6,0.3,1.3,0.5,2.2,0.5c0.8,0,1.4-0.1,2-0.4c0.6-0.3,1.1-0.5,1.5-0.8c0.4-0.3,0.8-0.6,1.1-0.8c0.3-0.2,0.5-0.4,0.7-0.4
			c0.1,0,0.2,0,0.2,0.1c0.1,0.1,0.1,0.1,0.2,0.3c0,0.1,0.1,0.3,0.1,0.5C178.2,40.7,178.3,40.9,178.3,41.2z"/>
		<path class="st6" d="M197.4,44.1c0,0.1,0,0.2-0.1,0.3c-0.1,0.1-0.1,0.2-0.3,0.2c-0.1,0.1-0.3,0.1-0.5,0.1s-0.5,0-0.9,0
			c-0.4,0-0.7,0-0.9,0c-0.2,0-0.4-0.1-0.6-0.1c-0.2,0-0.3-0.1-0.4-0.2c-0.1-0.1-0.2-0.2-0.3-0.3l-7.7-10.4v10.5c0,0.1,0,0.2-0.1,0.3
			c-0.1,0.1-0.1,0.1-0.3,0.2c-0.1,0.1-0.3,0.1-0.5,0.1c-0.2,0-0.5,0-0.8,0c-0.3,0-0.6,0-0.8,0s-0.4-0.1-0.5-0.1
			c-0.1-0.1-0.2-0.1-0.3-0.2c0-0.1-0.1-0.2-0.1-0.3v-28c0-0.1,0-0.2,0.1-0.3c0-0.1,0.1-0.2,0.3-0.2c0.1-0.1,0.3-0.1,0.5-0.1
			s0.5,0,0.8,0c0.3,0,0.6,0,0.8,0c0.2,0,0.4,0.1,0.5,0.1c0.1,0.1,0.2,0.1,0.3,0.2c0.1,0.1,0.1,0.2,0.1,0.3v17.1l6.9-7.8
			c0.1-0.1,0.2-0.3,0.3-0.3c0.1-0.1,0.3-0.2,0.4-0.2c0.2-0.1,0.4-0.1,0.6-0.1c0.2,0,0.5,0,0.8,0c0.3,0,0.6,0,0.9,0
			c0.2,0,0.4,0.1,0.6,0.1c0.1,0,0.2,0.1,0.3,0.2c0.1,0.1,0.1,0.2,0.1,0.3c0,0.2,0,0.3-0.1,0.5s-0.2,0.4-0.4,0.6l-6.6,6.8l7.4,10
			c0.2,0.2,0.3,0.4,0.4,0.6C197.4,43.8,197.4,43.9,197.4,44.1z"/>
		<path class="st6" d="M223.4,30.7c0,2.2-0.2,4.2-0.7,5.9c-0.5,1.8-1.2,3.3-2.2,4.5c-1,1.2-2.2,2.2-3.7,2.8c-1.5,0.7-3.2,1-5.2,1
			c-2,0-3.7-0.3-5.1-0.9c-1.4-0.6-2.6-1.5-3.6-2.7c-0.9-1.2-1.6-2.6-2.1-4.3c-0.5-1.7-0.7-3.7-0.7-5.9c0-2.1,0.2-4.1,0.7-5.8
			c0.5-1.7,1.2-3.2,2.2-4.5c1-1.2,2.2-2.2,3.7-2.8c1.5-0.7,3.2-1,5.2-1c1.9,0,3.6,0.3,5,0.9c1.4,0.6,2.6,1.5,3.6,2.6
			c1,1.2,1.7,2.6,2.1,4.3C223.2,26.6,223.4,28.5,223.4,30.7z M219.8,31c0-1.5-0.1-3-0.4-4.3c-0.3-1.3-0.7-2.5-1.3-3.4
			c-0.6-1-1.4-1.7-2.5-2.3c-1-0.5-2.3-0.8-3.8-0.8c-1.5,0-2.8,0.3-3.8,0.9s-1.9,1.4-2.5,2.3c-0.6,1-1.1,2.1-1.4,3.4
			c-0.3,1.3-0.4,2.7-0.4,4.1c0,1.6,0.1,3.1,0.4,4.4c0.3,1.3,0.7,2.5,1.3,3.5c0.6,1,1.4,1.7,2.4,2.3c1,0.5,2.3,0.8,3.8,0.8
			c1.5,0,2.8-0.3,3.8-0.9c1-0.6,1.9-1.4,2.5-2.4c0.6-1,1.1-2.2,1.4-3.5C219.6,33.8,219.8,32.4,219.8,31z"/>
		<path class="st6" d="M238.3,17.5c0,0.3,0,0.5,0,0.6c0,0.2-0.1,0.3-0.1,0.4s-0.1,0.2-0.1,0.2c-0.1,0-0.1,0.1-0.2,0.1
			c-0.1,0-0.2,0-0.4-0.1c-0.1-0.1-0.3-0.1-0.5-0.2c-0.2-0.1-0.4-0.1-0.7-0.2c-0.3-0.1-0.6-0.1-1-0.1c-0.5,0-0.9,0.1-1.3,0.3
			c-0.4,0.2-0.6,0.4-0.8,0.8c-0.2,0.4-0.4,0.8-0.5,1.4c-0.1,0.6-0.1,1.3-0.1,2.1v2.1h4.1c0.1,0,0.2,0,0.3,0.1c0.1,0,0.1,0.1,0.2,0.3
			c0.1,0.1,0.1,0.3,0.1,0.5s0.1,0.4,0.1,0.7c0,0.5-0.1,0.9-0.2,1.1c-0.1,0.2-0.3,0.3-0.5,0.3h-4.1v16.5c0,0.1,0,0.2-0.1,0.3
			c-0.1,0.1-0.1,0.1-0.3,0.2c-0.1,0.1-0.3,0.1-0.5,0.1c-0.2,0-0.5,0-0.8,0c-0.3,0-0.6,0-0.8,0c-0.2,0-0.4-0.1-0.5-0.1
			c-0.1-0.1-0.2-0.1-0.3-0.2c-0.1-0.1-0.1-0.2-0.1-0.3V27.5h-2.6c-0.2,0-0.4-0.1-0.5-0.3c-0.1-0.2-0.2-0.6-0.2-1.1
			c0-0.3,0-0.5,0-0.7s0.1-0.3,0.1-0.5c0.1-0.1,0.1-0.2,0.2-0.3c0.1,0,0.2-0.1,0.3-0.1h2.6v-1.9c0-1.3,0.1-2.4,0.4-3.4
			c0.2-0.9,0.6-1.7,1.1-2.3c0.5-0.6,1.1-1,1.8-1.3c0.7-0.3,1.6-0.4,2.6-0.4c0.5,0,0.9,0,1.4,0.1c0.4,0.1,0.8,0.2,1,0.3
			c0.2,0.1,0.4,0.2,0.5,0.3c0.1,0.1,0.1,0.2,0.2,0.3c0.1,0.1,0.1,0.3,0.1,0.5C238.3,17,238.3,17.2,238.3,17.5z"/>
		<path class="st6" d="M250.4,17.5c0,0.3,0,0.5,0,0.6c0,0.2-0.1,0.3-0.1,0.4s-0.1,0.2-0.1,0.2c-0.1,0-0.1,0.1-0.2,0.1
			c-0.1,0-0.2,0-0.4-0.1s-0.3-0.1-0.5-0.2c-0.2-0.1-0.4-0.1-0.7-0.2c-0.3-0.1-0.6-0.1-1-0.1c-0.5,0-0.9,0.1-1.3,0.3
			c-0.4,0.2-0.6,0.4-0.8,0.8c-0.2,0.4-0.4,0.8-0.5,1.4c-0.1,0.6-0.1,1.3-0.1,2.1v2.1h4.1c0.1,0,0.2,0,0.3,0.1c0.1,0,0.1,0.1,0.2,0.3
			c0.1,0.1,0.1,0.3,0.1,0.5s0.1,0.4,0.1,0.7c0,0.5-0.1,0.9-0.2,1.1c-0.1,0.2-0.3,0.3-0.5,0.3h-4.1v16.5c0,0.1,0,0.2-0.1,0.3
			c-0.1,0.1-0.1,0.1-0.3,0.2c-0.1,0.1-0.3,0.1-0.5,0.1c-0.2,0-0.5,0-0.8,0s-0.6,0-0.8,0c-0.2,0-0.4-0.1-0.5-0.1
			c-0.1-0.1-0.2-0.1-0.3-0.2c-0.1-0.1-0.1-0.2-0.1-0.3V27.5h-2.6c-0.2,0-0.4-0.1-0.5-0.3c-0.1-0.2-0.2-0.6-0.2-1.1
			c0-0.3,0-0.5,0-0.7c0-0.2,0.1-0.3,0.1-0.5c0.1-0.1,0.1-0.2,0.2-0.3c0.1,0,0.2-0.1,0.3-0.1h2.6v-1.9c0-1.3,0.1-2.4,0.4-3.4
			c0.2-0.9,0.6-1.7,1.1-2.3c0.5-0.6,1.1-1,1.8-1.3c0.7-0.3,1.6-0.4,2.6-0.4c0.5,0,0.9,0,1.4,0.1c0.4,0.1,0.8,0.2,1,0.3
			c0.2,0.1,0.4,0.2,0.5,0.3c0.1,0.1,0.1,0.2,0.2,0.3c0.1,0.1,0.1,0.3,0.1,0.5C250.4,17,250.4,17.2,250.4,17.5z"/>
		<path class="st6" d="M256.6,18.9c0,0.8-0.1,1.4-0.4,1.7c-0.3,0.3-0.8,0.4-1.6,0.4c-0.8,0-1.3-0.1-1.6-0.4
			c-0.3-0.3-0.4-0.8-0.4-1.6c0-0.8,0.1-1.4,0.4-1.7s0.8-0.4,1.6-0.4c0.8,0,1.3,0.1,1.6,0.4C256.4,17.5,256.6,18.1,256.6,18.9z
			 M256.2,44.1c0,0.1,0,0.2-0.1,0.3c-0.1,0.1-0.1,0.1-0.3,0.2c-0.1,0.1-0.3,0.1-0.5,0.1c-0.2,0-0.5,0-0.8,0c-0.3,0-0.6,0-0.8,0
			s-0.4-0.1-0.5-0.1c-0.1-0.1-0.2-0.1-0.3-0.2c0-0.1-0.1-0.2-0.1-0.3V25.2c0-0.1,0-0.2,0.1-0.3c0-0.1,0.1-0.2,0.3-0.2
			c0.1-0.1,0.3-0.1,0.5-0.1c0.2,0,0.5,0,0.8,0c0.3,0,0.6,0,0.8,0c0.2,0,0.4,0.1,0.5,0.1c0.1,0.1,0.2,0.1,0.3,0.2
			c0.1,0.1,0.1,0.2,0.1,0.3V44.1z"/>
		<path class="st6" d="M275.2,41.2c0,0.2,0,0.4,0,0.6c0,0.2,0,0.3-0.1,0.4c0,0.1-0.1,0.2-0.1,0.3c0,0.1-0.2,0.2-0.3,0.4
			c-0.2,0.2-0.5,0.4-0.9,0.6c-0.4,0.3-0.9,0.5-1.4,0.7c-0.5,0.2-1.1,0.4-1.6,0.5c-0.6,0.1-1.2,0.2-1.8,0.2c-1.3,0-2.5-0.2-3.5-0.7
			s-1.9-1.1-2.5-2c-0.7-0.9-1.2-1.9-1.6-3.2c-0.4-1.3-0.5-2.7-0.5-4.3c0-1.9,0.2-3.5,0.7-4.8c0.4-1.3,1-2.4,1.8-3.3
			c0.8-0.9,1.7-1.5,2.7-1.9c1-0.4,2.1-0.6,3.3-0.6c0.6,0,1.1,0.1,1.7,0.2c0.5,0.1,1,0.3,1.5,0.4c0.5,0.2,0.9,0.4,1.2,0.6
			c0.4,0.2,0.6,0.4,0.8,0.6c0.2,0.2,0.3,0.3,0.3,0.4c0.1,0.1,0.1,0.2,0.2,0.3c0,0.1,0.1,0.3,0.1,0.5c0,0.2,0,0.4,0,0.6
			c0,0.5-0.1,0.9-0.2,1.1c-0.1,0.2-0.3,0.3-0.4,0.3c-0.2,0-0.4-0.1-0.7-0.3s-0.6-0.5-1-0.8c-0.4-0.3-0.9-0.5-1.5-0.8
			c-0.6-0.2-1.3-0.3-2-0.3c-1.6,0-2.8,0.6-3.7,1.9c-0.9,1.3-1.3,3.1-1.3,5.6c0,1.2,0.1,2.3,0.3,3.2c0.2,0.9,0.6,1.7,1,2.3
			c0.4,0.6,1,1.1,1.6,1.4c0.6,0.3,1.3,0.5,2.2,0.5c0.8,0,1.4-0.1,2-0.4c0.6-0.3,1.1-0.5,1.5-0.8c0.4-0.3,0.8-0.6,1.1-0.8
			c0.3-0.2,0.5-0.4,0.7-0.4c0.1,0,0.2,0,0.2,0.1c0.1,0.1,0.1,0.1,0.2,0.3c0,0.1,0.1,0.3,0.1,0.5C275.2,40.7,275.2,40.9,275.2,41.2z"
			/>
		<path class="st6" d="M295,33.8c0,0.5-0.1,0.9-0.4,1.2c-0.3,0.2-0.6,0.3-0.9,0.3h-12c0,1,0.1,2,0.3,2.8c0.2,0.8,0.5,1.6,1,2.2
			c0.5,0.6,1.1,1.1,1.9,1.4c0.8,0.3,1.7,0.5,2.8,0.5c0.9,0,1.6-0.1,2.3-0.2c0.7-0.1,1.3-0.3,1.8-0.5c0.5-0.2,0.9-0.3,1.2-0.5
			c0.3-0.1,0.6-0.2,0.7-0.2c0.1,0,0.2,0,0.3,0.1c0.1,0,0.1,0.1,0.2,0.2c0,0.1,0.1,0.2,0.1,0.4c0,0.2,0,0.4,0,0.6c0,0.2,0,0.3,0,0.5
			c0,0.1,0,0.3-0.1,0.4c0,0.1-0.1,0.2-0.1,0.3c0,0.1-0.1,0.2-0.2,0.2c-0.1,0.1-0.3,0.2-0.7,0.4c-0.4,0.2-0.8,0.3-1.4,0.5
			c-0.6,0.2-1.3,0.3-2,0.4c-0.8,0.1-1.6,0.2-2.4,0.2c-1.5,0-2.8-0.2-3.9-0.6c-1.1-0.4-2.1-1.1-2.8-1.9c-0.8-0.9-1.3-1.9-1.7-3.2
			c-0.4-1.3-0.6-2.8-0.6-4.5c0-1.6,0.2-3.1,0.6-4.4c0.4-1.3,1-2.4,1.8-3.3c0.8-0.9,1.7-1.6,2.8-2.1c1.1-0.5,2.3-0.7,3.6-0.7
			c1.4,0,2.6,0.2,3.7,0.7c1,0.5,1.8,1.1,2.5,1.9c0.6,0.8,1.1,1.7,1.4,2.8c0.3,1.1,0.5,2.2,0.5,3.5V33.8z M291.6,32.8
			c0-1.8-0.3-3.2-1.2-4.3c-0.8-1-2-1.6-3.7-1.6c-0.8,0-1.6,0.2-2.2,0.5c-0.6,0.3-1.1,0.7-1.6,1.3c-0.4,0.5-0.7,1.1-1,1.9
			c-0.2,0.7-0.4,1.4-0.4,2.2H291.6z"/>
	</g>
</g>
<g>
	<path class="st7" d="M79.3,19.3c-1.6,0-3.1,0-4.7,0c-0.2-2.3,0.3-4.5,1.1-6.6C78.4,5.4,85.8,0.1,93.3,0.2c0.1,0,0.3,0,0.4,0
		c0,1.6,0,3.1,0,4.7c-0.2,0-0.4,0-0.6,0.1c-5.5,0.4-9.5,2.9-12.1,7.8C79.9,14.7,79.4,17,79.3,19.3z"/>
	<g>
		<path class="st6" d="M36.2,0c0.5,0,1,0,1.5,0c1,0,1.7,0.5,2,1.5c1.7,4.9,3.5,9.8,5.3,14.7c2.3,6.5,4.7,13,7,19.5
			c0,0.1,0.1,0.2,0.1,0.3c0.5,1.5,0.2,2-1.4,2c-0.7,0-1.4,0-2.1,0c-1.1,0-1.4-0.3-1.8-1.3c-0.9-2.7-1.9-5.4-2.8-8.1
			c-0.2-0.5-0.4-0.7-0.9-0.7c-4.7,0-9.4,0-14.2,0c-0.5,0-0.8,0.1-0.9,0.7c-0.9,2.7-1.8,5.4-2.7,8.1c-0.4,1.1-0.7,1.3-1.8,1.4
			c-0.7,0-1.4,0-2.1,0c-1.3,0-1.7-0.5-1.2-1.8c0.7-2,1.4-4,2.1-5.9C25.7,20.9,29,11.4,32.4,2c0.7-1.9,0.9-2,2.9-2
			C35.6,0,35.9,0,36.2,0C36.2,0,36.2,0,36.2,0z M35.9,5.4c-0.2,0.4-0.2,0.5-0.3,0.7c-2,5.7-4,11.4-6,17.2c-0.2,0.7,0,0.7,0.5,0.7
			c3.8,0,7.6,0,11.5,0c0.7,0,0.8-0.2,0.5-0.8c-1.8-5-3.5-10-5.3-15C36.6,7.2,36.3,6.4,35.9,5.4z"/>
		<path class="st8" d="M93.7,0.2c4.5-0.1,8.4,1.4,11.9,4.1c4.9,4,7.3,9.2,7.2,15.6c-0.1,8.7-6.9,16.6-15.5,18.1
			c-1.2,0.2-2.4,0.4-3.7,0.3c0-1.6,0-3.1,0-4.7c0.9-0.1,1.8-0.1,2.6-0.3c5.9-1.2,9.8-4.8,11.2-10.6c1.4-5.8-0.3-10.9-5-14.7
			C100,5.9,97,5,93.7,4.9C93.7,3.3,93.7,1.8,93.7,0.2z"/>
		<path class="st6" d="M68.4,25.1c1.1,0.5,2.2,1,2.9,1.9c1.6,1.9,1.5,5.5-0.2,7.8c-1.4,2-3.5,2.9-5.8,3.2c-3.6,0.6-7,0-10.2-1.8
			c-0.4-0.2-0.5-0.4-0.3-0.9c0.4-0.7,0.8-1.5,1.2-2.3c0.2-0.5,0.5-0.5,0.9-0.2c2,1.2,4.2,1.9,6.5,1.8c1.2-0.1,2.4-0.3,3.4-1.1
			c2.2-1.6,2.1-4.2-0.4-5.4c-1.3-0.6-2.6-0.9-4-1.1c-0.4,0-0.6-0.2-0.6-0.6c0-0.7,0-1.4,0-2.1c0-0.5,0.2-0.7,0.6-0.7
			c1-0.1,2-0.4,2.8-1c0.9-0.6,1.6-1.3,1.4-2.5c-0.2-1.2-1-1.9-2.3-2.2c-1.4-0.3-2.8,0-4.2,0.4c-1,0.3-2,0.7-2.9,1.1
			c-0.5,0.2-0.7,0.1-0.8-0.4c-0.2-0.7-0.4-1.5-0.6-2.2c-0.1-0.3,0-0.5,0.3-0.6c3.1-1.6,6.4-2.5,9.9-1.6c3.4,0.9,4.9,3.7,4.6,6.9
			c-0.1,1-0.7,1.8-1.3,2.6C69.1,24.4,68.8,24.7,68.4,25.1z"/>
		<path class="st9" d="M93.7,33.7c0,1.6,0,3.1,0,4.7c-5.6,0-10.2-2.1-14-6.1c-3.2-3.4-4.9-7.5-5.1-12.2c0-0.3-0.1-0.6,0.1-0.9
			c1.6,0,3.1,0,4.7,0c0,0.2,0.1,0.3,0.1,0.5c0.2,4.4,2,8.1,5.4,10.8C87.4,32.7,90.4,33.5,93.7,33.7z"/>
		<g>
			<path class="st6" d="M144.1,34.9c0,0.2,0,0.4,0,0.5c0,0.1,0,0.3-0.1,0.4c0,0.1-0.1,0.2-0.1,0.3c0,0.1-0.1,0.2-0.3,0.3
				c-0.1,0.1-0.4,0.3-0.8,0.6c-0.4,0.2-0.9,0.5-1.4,0.7c-0.6,0.2-1.2,0.4-2,0.6c-0.7,0.2-1.6,0.2-2.4,0.2c-1.5,0-2.9-0.3-4.1-0.8
				c-1.2-0.5-2.3-1.3-3.1-2.2c-0.9-1-1.5-2.2-2-3.7c-0.5-1.5-0.7-3.1-0.7-5c0-1.9,0.3-3.7,0.8-5.2c0.5-1.5,1.2-2.8,2.1-3.9
				c0.9-1.1,2-1.9,3.2-2.4c1.3-0.6,2.7-0.8,4.2-0.8c0.7,0,1.3,0.1,2,0.2c0.6,0.1,1.2,0.3,1.8,0.5c0.5,0.2,1,0.4,1.4,0.7
				c0.4,0.3,0.7,0.5,0.9,0.6c0.2,0.2,0.3,0.3,0.3,0.4c0,0.1,0.1,0.2,0.1,0.3c0,0.1,0.1,0.3,0.1,0.4c0,0.2,0,0.3,0,0.6
				c0,0.2,0,0.4,0,0.6s-0.1,0.3-0.1,0.4c0,0.1-0.1,0.2-0.2,0.3c-0.1,0.1-0.1,0.1-0.2,0.1c-0.2,0-0.4-0.1-0.7-0.4
				c-0.3-0.2-0.7-0.5-1.2-0.8c-0.5-0.3-1.1-0.5-1.7-0.8c-0.7-0.2-1.5-0.4-2.5-0.4c-1,0-2,0.2-2.8,0.6c-0.9,0.4-1.6,1-2.2,1.8
				c-0.6,0.8-1.1,1.8-1.4,3c-0.3,1.2-0.5,2.5-0.5,4c0,1.5,0.2,2.8,0.5,3.9c0.3,1.1,0.8,2.1,1.4,2.9c0.6,0.8,1.3,1.3,2.2,1.7
				c0.9,0.4,1.9,0.6,3,0.6c0.9,0,1.7-0.1,2.4-0.3c0.7-0.2,1.3-0.5,1.8-0.8c0.5-0.3,0.9-0.5,1.2-0.8c0.3-0.2,0.6-0.3,0.7-0.3
				c0.1,0,0.2,0,0.2,0.1c0.1,0,0.1,0.1,0.1,0.2c0,0.1,0.1,0.2,0.1,0.4C144.1,34.4,144.1,34.6,144.1,34.9z"/>
			<path class="st6" d="M162.7,29.4c0,1.3-0.2,2.5-0.5,3.7c-0.4,1.1-0.9,2.1-1.6,2.9c-0.7,0.8-1.6,1.4-2.6,1.9
				c-1,0.5-2.3,0.7-3.6,0.7c-1.3,0-2.5-0.2-3.5-0.6c-1-0.4-1.8-1-2.5-1.7c-0.7-0.8-1.2-1.7-1.5-2.8c-0.3-1.1-0.5-2.3-0.5-3.7
				c0-1.3,0.2-2.5,0.5-3.7c0.3-1.1,0.9-2.1,1.6-2.9c0.7-0.8,1.6-1.4,2.6-1.9c1-0.4,2.2-0.7,3.6-0.7c1.3,0,2.5,0.2,3.5,0.6
				c1,0.4,1.8,1,2.5,1.7c0.7,0.8,1.2,1.7,1.5,2.8C162.5,26.8,162.7,28,162.7,29.4z M159.6,29.6c0-0.9-0.1-1.7-0.2-2.5
				c-0.2-0.8-0.4-1.5-0.8-2.1c-0.4-0.6-0.9-1.1-1.5-1.4c-0.6-0.3-1.4-0.5-2.4-0.5c-0.9,0-1.7,0.2-2.3,0.5c-0.6,0.3-1.2,0.8-1.6,1.3
				c-0.4,0.6-0.7,1.3-0.9,2c-0.2,0.8-0.3,1.6-0.3,2.6c0,0.9,0.1,1.7,0.2,2.5c0.2,0.8,0.4,1.5,0.8,2.1c0.4,0.6,0.9,1,1.5,1.4
				c0.6,0.3,1.4,0.5,2.4,0.5c0.9,0,1.6-0.2,2.3-0.5c0.6-0.3,1.2-0.8,1.6-1.3c0.4-0.6,0.7-1.2,0.9-2
				C159.5,31.4,159.6,30.5,159.6,29.6z"/>
			<path class="st6" d="M180.8,37.7c0,0.1,0,0.2-0.1,0.2c0,0.1-0.1,0.1-0.2,0.2c-0.1,0-0.3,0.1-0.5,0.1c-0.2,0-0.4,0-0.7,0
				c-0.3,0-0.5,0-0.7,0c-0.2,0-0.3-0.1-0.5-0.1c-0.1,0-0.2-0.1-0.2-0.2c0-0.1-0.1-0.1-0.1-0.2v-9.5c0-0.9-0.1-1.7-0.2-2.2
				c-0.1-0.6-0.4-1.1-0.6-1.5s-0.6-0.7-1.1-0.9c-0.4-0.2-0.9-0.3-1.5-0.3c-0.7,0-1.5,0.3-2.2,0.8c-0.7,0.5-1.5,1.3-2.4,2.3v11.4
				c0,0.1,0,0.2-0.1,0.2c0,0.1-0.1,0.1-0.2,0.2c-0.1,0-0.3,0.1-0.5,0.1c-0.2,0-0.4,0-0.7,0c-0.3,0-0.5,0-0.7,0s-0.3-0.1-0.5-0.1
				c-0.1,0-0.2-0.1-0.2-0.2c0-0.1-0.1-0.1-0.1-0.2V21.4c0-0.1,0-0.2,0.1-0.2c0-0.1,0.1-0.1,0.2-0.2c0.1-0.1,0.2-0.1,0.4-0.1
				c0.2,0,0.4,0,0.7,0c0.3,0,0.5,0,0.7,0c0.2,0,0.3,0.1,0.4,0.1c0.1,0.1,0.2,0.1,0.2,0.2c0,0.1,0.1,0.1,0.1,0.2v2.2
				c0.9-1,1.8-1.8,2.7-2.3c0.9-0.5,1.8-0.7,2.8-0.7c1.1,0,2,0.2,2.7,0.6c0.7,0.4,1.3,0.9,1.8,1.5c0.5,0.6,0.8,1.3,1,2.2
				c0.2,0.8,0.3,1.8,0.3,3V37.7z"/>
			<path class="st6" d="M196.1,33.3c0,0.8-0.2,1.6-0.5,2.2c-0.3,0.7-0.7,1.2-1.3,1.6c-0.6,0.4-1.2,0.8-2,1c-0.8,0.2-1.6,0.3-2.6,0.3
				c-0.6,0-1.1,0-1.7-0.1c-0.5-0.1-1-0.2-1.4-0.3c-0.4-0.1-0.8-0.3-1.1-0.4c-0.3-0.2-0.5-0.3-0.6-0.4c-0.1-0.1-0.2-0.3-0.3-0.5
				c-0.1-0.2-0.1-0.5-0.1-0.9c0-0.2,0-0.4,0-0.6s0.1-0.3,0.1-0.4c0-0.1,0.1-0.2,0.2-0.2c0.1,0,0.1-0.1,0.2-0.1
				c0.1,0,0.3,0.1,0.6,0.2c0.3,0.2,0.6,0.3,1,0.5c0.4,0.2,0.8,0.4,1.3,0.5c0.5,0.2,1.1,0.2,1.8,0.2c0.5,0,1-0.1,1.4-0.2
				c0.4-0.1,0.8-0.3,1.1-0.5c0.3-0.2,0.5-0.5,0.7-0.8c0.2-0.3,0.2-0.7,0.2-1.2c0-0.5-0.1-0.8-0.4-1.2c-0.2-0.3-0.5-0.6-0.9-0.8
				c-0.4-0.2-0.8-0.5-1.3-0.6c-0.5-0.2-1-0.4-1.5-0.6c-0.5-0.2-1-0.4-1.5-0.7c-0.5-0.3-0.9-0.6-1.3-1c-0.4-0.4-0.7-0.8-0.9-1.3
				c-0.2-0.5-0.4-1.1-0.4-1.9c0-0.6,0.1-1.3,0.4-1.8c0.2-0.6,0.6-1.1,1.1-1.5c0.5-0.4,1.1-0.8,1.9-1.1c0.7-0.3,1.6-0.4,2.6-0.4
				c0.4,0,0.9,0,1.3,0.1c0.4,0.1,0.8,0.2,1.2,0.3c0.4,0.1,0.6,0.2,0.9,0.4c0.2,0.1,0.4,0.2,0.6,0.3c0.1,0.1,0.2,0.2,0.3,0.3
				c0,0.1,0.1,0.2,0.1,0.2c0,0.1,0,0.2,0.1,0.3c0,0.1,0,0.3,0,0.5c0,0.2,0,0.4,0,0.5c0,0.2,0,0.3-0.1,0.4c0,0.1-0.1,0.2-0.2,0.2
				c-0.1,0-0.1,0.1-0.2,0.1c-0.1,0-0.3-0.1-0.5-0.2c-0.2-0.1-0.5-0.3-0.8-0.4s-0.7-0.3-1.1-0.4c-0.4-0.1-0.9-0.2-1.5-0.2
				c-0.5,0-1,0.1-1.3,0.2c-0.4,0.1-0.7,0.3-1,0.5c-0.2,0.2-0.4,0.5-0.6,0.8c-0.1,0.3-0.2,0.6-0.2,0.9c0,0.5,0.1,0.9,0.4,1.2
				c0.2,0.3,0.6,0.6,0.9,0.8c0.4,0.2,0.8,0.5,1.3,0.7c0.5,0.2,1,0.4,1.5,0.6c0.5,0.2,1,0.4,1.5,0.7c0.5,0.3,0.9,0.6,1.3,0.9
				c0.4,0.4,0.7,0.8,0.9,1.3C196,32,196.1,32.6,196.1,33.3z"/>
			<path class="st6" d="M214,37.7c0,0.1,0,0.2-0.1,0.2c0,0.1-0.1,0.1-0.2,0.2c-0.1,0-0.3,0.1-0.4,0.1c-0.2,0-0.4,0-0.6,0
				c-0.3,0-0.5,0-0.7,0s-0.3-0.1-0.4-0.1c-0.1,0-0.2-0.1-0.2-0.2c0-0.1-0.1-0.1-0.1-0.2v-2.2c-0.9,1-1.8,1.8-2.7,2.2
				c-0.9,0.5-1.8,0.7-2.7,0.7c-1.1,0-2-0.2-2.7-0.5c-0.7-0.4-1.3-0.9-1.8-1.5c-0.5-0.6-0.8-1.3-1-2.2c-0.2-0.8-0.3-1.8-0.3-3v-9.9
				c0-0.1,0-0.2,0.1-0.2c0-0.1,0.1-0.1,0.2-0.2c0.1-0.1,0.3-0.1,0.5-0.1c0.2,0,0.4,0,0.7,0c0.3,0,0.5,0,0.7,0c0.2,0,0.3,0.1,0.5,0.1
				c0.1,0.1,0.2,0.1,0.2,0.2c0,0.1,0.1,0.1,0.1,0.2v9.5c0,1,0.1,1.7,0.2,2.3c0.1,0.6,0.4,1.1,0.6,1.5c0.3,0.4,0.6,0.7,1.1,0.9
				c0.4,0.2,0.9,0.3,1.5,0.3c0.7,0,1.5-0.3,2.2-0.8c0.7-0.5,1.5-1.3,2.4-2.3V21.4c0-0.1,0-0.2,0.1-0.2c0-0.1,0.1-0.1,0.2-0.2
				c0.1-0.1,0.3-0.1,0.5-0.1c0.2,0,0.4,0,0.7,0c0.3,0,0.5,0,0.7,0c0.2,0,0.3,0.1,0.5,0.1c0.1,0.1,0.2,0.1,0.2,0.2
				c0.1,0.1,0.1,0.1,0.1,0.2V37.7z"/>
			<path class="st6" d="M222.2,37.7c0,0.1,0,0.2-0.1,0.2c0,0.1-0.1,0.1-0.2,0.2c-0.1,0-0.3,0.1-0.5,0.1c-0.2,0-0.4,0-0.7,0
				c-0.3,0-0.5,0-0.7,0s-0.3-0.1-0.5-0.1c-0.1,0-0.2-0.1-0.2-0.2c0-0.1-0.1-0.1-0.1-0.2V13.6c0-0.1,0-0.2,0.1-0.3
				c0-0.1,0.1-0.1,0.2-0.2c0.1,0,0.3-0.1,0.5-0.1c0.2,0,0.4,0,0.7,0c0.3,0,0.5,0,0.7,0c0.2,0,0.3,0.1,0.5,0.1c0.1,0,0.2,0.1,0.2,0.2
				c0,0.1,0.1,0.2,0.1,0.3V37.7z"/>
			<path class="st6" d="M235.8,36.5c0,0.4,0,0.6-0.1,0.8c0,0.2-0.1,0.4-0.2,0.5c-0.1,0.1-0.2,0.2-0.4,0.3c-0.2,0.1-0.4,0.2-0.7,0.2
				c-0.2,0.1-0.5,0.1-0.8,0.1c-0.3,0-0.6,0.1-0.8,0.1c-0.8,0-1.6-0.1-2.2-0.3c-0.6-0.2-1.1-0.6-1.5-1c-0.4-0.5-0.7-1-0.8-1.7
				c-0.2-0.7-0.3-1.5-0.3-2.5v-9.5h-2.3c-0.2,0-0.3-0.1-0.4-0.3c-0.1-0.2-0.2-0.5-0.2-0.9c0-0.2,0-0.4,0-0.6s0.1-0.3,0.1-0.4
				c0-0.1,0.1-0.2,0.2-0.2c0.1,0,0.2-0.1,0.3-0.1h2.3v-3.9c0-0.1,0-0.2,0.1-0.2c0-0.1,0.1-0.1,0.2-0.2c0.1-0.1,0.3-0.1,0.5-0.1
				c0.2,0,0.4,0,0.7,0c0.3,0,0.5,0,0.7,0c0.2,0,0.3,0.1,0.5,0.1c0.1,0.1,0.2,0.1,0.2,0.2c0,0.1,0.1,0.2,0.1,0.2V21h4.2
				c0.1,0,0.2,0,0.3,0.1c0.1,0,0.1,0.1,0.2,0.2c0.1,0.1,0.1,0.2,0.1,0.4s0,0.3,0,0.6c0,0.4-0.1,0.7-0.2,0.9
				c-0.1,0.2-0.3,0.3-0.4,0.3H231v9.1c0,1.1,0.2,2,0.5,2.5c0.3,0.6,0.9,0.9,1.8,0.9c0.3,0,0.5,0,0.7-0.1c0.2-0.1,0.4-0.1,0.6-0.2
				c0.2-0.1,0.3-0.1,0.4-0.2c0.1-0.1,0.2-0.1,0.3-0.1c0.1,0,0.1,0,0.2,0s0.1,0.1,0.1,0.2c0,0.1,0.1,0.2,0.1,0.3
				C235.8,36.1,235.8,36.3,235.8,36.5z"/>
			<path class="st6" d="M242.8,15.9c0,0.7-0.1,1.2-0.4,1.4c-0.3,0.3-0.8,0.4-1.5,0.4c-0.7,0-1.2-0.1-1.4-0.4
				c-0.3-0.2-0.4-0.7-0.4-1.4c0-0.7,0.1-1.2,0.4-1.4c0.3-0.3,0.8-0.4,1.5-0.4c0.7,0,1.2,0.1,1.4,0.4
				C242.6,14.8,242.8,15.3,242.8,15.9z M242.4,37.7c0,0.1,0,0.2-0.1,0.2c0,0.1-0.1,0.1-0.2,0.2c-0.1,0-0.3,0.1-0.5,0.1
				c-0.2,0-0.4,0-0.7,0c-0.3,0-0.5,0-0.7,0c-0.2,0-0.3-0.1-0.5-0.1c-0.1,0-0.2-0.1-0.2-0.2c0-0.1-0.1-0.1-0.1-0.2V21.4
				c0-0.1,0-0.2,0.1-0.2c0-0.1,0.1-0.1,0.2-0.2c0.1,0,0.3-0.1,0.5-0.1c0.2,0,0.4,0,0.7,0c0.3,0,0.5,0,0.7,0c0.2,0,0.3,0.1,0.5,0.1
				c0.1,0,0.2,0.1,0.2,0.2c0,0.1,0.1,0.2,0.1,0.2V37.7z"/>
			<path class="st6" d="M261.6,37.7c0,0.1,0,0.2-0.1,0.2c0,0.1-0.1,0.1-0.2,0.2c-0.1,0-0.3,0.1-0.5,0.1c-0.2,0-0.4,0-0.7,0
				c-0.3,0-0.5,0-0.7,0c-0.2,0-0.3-0.1-0.5-0.1c-0.1,0-0.2-0.1-0.2-0.2c0-0.1-0.1-0.1-0.1-0.2v-9.5c0-0.9-0.1-1.7-0.2-2.2
				c-0.1-0.6-0.4-1.1-0.6-1.5c-0.3-0.4-0.6-0.7-1.1-0.9c-0.4-0.2-0.9-0.3-1.5-0.3c-0.7,0-1.5,0.3-2.2,0.8c-0.7,0.5-1.5,1.3-2.4,2.3
				v11.4c0,0.1,0,0.2-0.1,0.2c0,0.1-0.1,0.1-0.2,0.2c-0.1,0-0.3,0.1-0.5,0.1c-0.2,0-0.4,0-0.7,0c-0.3,0-0.5,0-0.7,0
				s-0.3-0.1-0.5-0.1c-0.1,0-0.2-0.1-0.2-0.2c0-0.1-0.1-0.1-0.1-0.2V21.4c0-0.1,0-0.2,0.1-0.2c0-0.1,0.1-0.1,0.2-0.2
				c0.1-0.1,0.2-0.1,0.4-0.1c0.2,0,0.4,0,0.7,0c0.3,0,0.5,0,0.7,0c0.2,0,0.3,0.1,0.4,0.1c0.1,0.1,0.2,0.1,0.2,0.2
				c0,0.1,0.1,0.1,0.1,0.2v2.2c0.9-1,1.8-1.8,2.7-2.3c0.9-0.5,1.8-0.7,2.8-0.7c1.1,0,2,0.2,2.7,0.6c0.7,0.4,1.3,0.9,1.8,1.5
				c0.5,0.6,0.8,1.3,1,2.2c0.2,0.8,0.3,1.8,0.3,3V37.7z"/>
			<path class="st6" d="M280.3,22.2c0,0.4-0.1,0.7-0.2,0.9c-0.1,0.2-0.3,0.3-0.4,0.3h-2.3c0.4,0.4,0.7,0.9,0.9,1.4
				c0.2,0.5,0.3,1.1,0.3,1.6c0,0.9-0.2,1.8-0.5,2.5c-0.3,0.7-0.7,1.3-1.3,1.8c-0.6,0.5-1.2,0.9-2,1.1c-0.8,0.3-1.6,0.4-2.6,0.4
				c-0.7,0-1.3-0.1-1.9-0.3c-0.6-0.2-1.1-0.4-1.4-0.7c-0.2,0.2-0.4,0.5-0.5,0.7c-0.1,0.3-0.2,0.6-0.2,1c0,0.4,0.2,0.8,0.6,1
				c0.4,0.3,0.9,0.4,1.6,0.5l4.3,0.2c0.8,0,1.5,0.1,2.2,0.3c0.7,0.2,1.3,0.5,1.8,0.9c0.5,0.4,0.9,0.8,1.2,1.4s0.4,1.2,0.4,1.9
				c0,0.7-0.2,1.5-0.5,2.1c-0.3,0.7-0.8,1.3-1.4,1.8c-0.6,0.5-1.5,0.9-2.5,1.2c-1,0.3-2.2,0.4-3.5,0.4c-1.3,0-2.4-0.1-3.4-0.3
				c-0.9-0.2-1.7-0.5-2.3-0.9c-0.6-0.4-1-0.8-1.3-1.4c-0.3-0.5-0.4-1.1-0.4-1.7c0-0.4,0-0.8,0.1-1.2c0.1-0.4,0.2-0.7,0.4-1.1
				c0.2-0.3,0.4-0.7,0.7-1c0.3-0.3,0.6-0.6,1-0.9c-0.6-0.3-1-0.7-1.3-1.1s-0.4-1-0.4-1.5c0-0.7,0.2-1.4,0.5-2
				c0.3-0.6,0.7-1.1,1.1-1.6c-0.4-0.4-0.7-0.9-0.9-1.5c-0.2-0.6-0.3-1.2-0.3-2c0-0.9,0.2-1.8,0.5-2.5c0.3-0.7,0.7-1.4,1.3-1.9
				c0.6-0.5,1.2-0.9,2-1.2c0.8-0.3,1.6-0.4,2.5-0.4c0.5,0,1,0,1.4,0.1c0.4,0.1,0.8,0.1,1.2,0.2h4.9c0.2,0,0.4,0.1,0.5,0.3
				C280.3,21.5,280.3,21.8,280.3,22.2z M277.2,39.4c0-0.7-0.3-1.2-0.9-1.6c-0.6-0.4-1.3-0.6-2.3-0.6l-4.2-0.1
				c-0.4,0.3-0.7,0.6-1,0.9c-0.2,0.3-0.4,0.5-0.6,0.8c-0.1,0.2-0.2,0.5-0.3,0.7c-0.1,0.2-0.1,0.5-0.1,0.7c0,0.8,0.4,1.4,1.2,1.8
				c0.8,0.4,1.9,0.6,3.3,0.6c0.9,0,1.7-0.1,2.3-0.3c0.6-0.2,1.1-0.4,1.5-0.7c0.4-0.3,0.6-0.6,0.8-1
				C277.1,40.2,277.2,39.8,277.2,39.4z M275.7,26.5c0-1.1-0.3-2-0.9-2.6c-0.6-0.6-1.5-0.9-2.6-0.9c-0.6,0-1.1,0.1-1.5,0.3
				c-0.4,0.2-0.8,0.5-1.1,0.8c-0.3,0.3-0.5,0.7-0.6,1.2c-0.1,0.4-0.2,0.9-0.2,1.4c0,1.1,0.3,1.9,0.9,2.5c0.6,0.6,1.5,0.9,2.6,0.9
				c0.6,0,1.1-0.1,1.5-0.3c0.4-0.2,0.8-0.4,1.1-0.8s0.5-0.7,0.6-1.1C275.6,27.4,275.7,26.9,275.7,26.5z"/>
		</g>
	</g>
</g>
</svg>
