<?xml version="1.0" encoding="utf-8"?>
<!-- Generator: Adobe Illustrator 21.0.2, SVG Export Plug-In . SVG Version: 6.00 Build 0)  -->
<svg version="1.1" id="Layer_1" xmlns="http://www.w3.org/2000/svg" xmlns:xlink="http://www.w3.org/1999/xlink" x="0px" y="0px"
	 viewBox="0 0 45 45" style="enable-background:new 0 0 45 45;" xml:space="preserve">
<style type="text/css">
	.st0{display:none;}
	.st1{display:inline;}
	.st2{fill:#777677;}
	.st3{display:inline;fill:#FFFFFF;}
	.st4{fill:#FFFFFF;}
</style>
<g class="st0">
	<g class="st1">
		<circle class="st2" cx="22.4" cy="22.4" r="22.4"/>
	</g>
	<path class="st3" d="M18.8,37.1h5.7V22.7h4l0.4-4.8h-4.4c0,0,0-1.8,0-2.7c0-1.1,0.2-1.6,1.3-1.6c0.9,0,3.1,0,3.1,0v-5
		c0,0-3.3,0-4,0c-4.3,0-6.2,1.9-6.2,5.5c0,3.1,0,3.8,0,3.8h-3v4.9h3V37.1z"/>
</g>
<g class="st0">
	<g class="st1">
		<circle class="st2" cx="22.4" cy="22.3" r="22.4"/>
	</g>
	<g class="st1">
		<g>
			<rect x="11.8" y="17.7" class="st4" width="4.9" height="15.8"/>
			<ellipse class="st4" cx="14.2" cy="12.7" rx="2.9" ry="2.9"/>
		</g>
		<path class="st4" d="M24.5,25.2c0-2.2,1-3.5,3-3.5c1.8,0,2.7,1.3,2.7,3.5c0,2.3,0,8.3,0,8.3h4.9c0,0,0-5.8,0-10
			c0-4.2-2.4-6.3-5.8-6.3c-3.4,0-4.8,2.6-4.8,2.6v-2.1h-4.7v15.8h4.7C24.5,33.5,24.5,27.7,24.5,25.2z"/>
	</g>
</g>
<g>
	<g>
		<circle class="st2" cx="22.5" cy="22.2" r="22.3"/>
	</g>
	<path class="st4" d="M11.7,31.2c2.3,1.5,5,2.3,7.9,2.3c9.5,0,14.9-8.1,14.6-15.3c1-0.7,1.9-1.6,2.6-2.7c-0.9,0.4-1.9,0.7-3,0.8
		c1.1-0.6,1.9-1.6,2.3-2.8c-1,0.6-2.1,1-3.3,1.2c-0.9-1-2.3-1.6-3.8-1.6c-3.3,0-5.8,3.1-5,6.3c-4.3-0.2-8.1-2.3-10.6-5.4
		c-1.3,2.3-0.7,5.3,1.6,6.9c-0.8,0-1.6-0.3-2.3-0.6c-0.1,2.4,1.7,4.6,4.1,5.1c-0.7,0.2-1.5,0.2-2.3,0.1c0.7,2,2.6,3.5,4.8,3.6
		C17.1,30.7,14.4,31.5,11.7,31.2z"/>
</g>
<g class="st0">
	<g class="st1">
		<circle class="st2" cx="22.4" cy="22.4" r="22.4"/>
	</g>
	<g class="st1">
		<g>
			<path class="st4" d="M26.8,19.2c0.5,0,1.1-0.2,1.7-1v0.9H30v-8h-1.5v6.1c-0.2,0.2-0.6,0.6-0.9,0.6c-0.3,0-0.4-0.2-0.4-0.5v-6.2
				h-1.5v6.7C25.7,18.6,26,19.2,26.8,19.2z"/>
			<path class="st4" d="M20.1,17.1c0,1.4,0.7,2.2,2.2,2.2c1.2,0,2.1-0.8,2.1-2.2v-3.9c0-1.3-0.9-2.2-2.1-2.2c-1.3,0-2.2,0.9-2.2,2.2
				V17.1z M21.7,13.3c0-0.4,0.2-0.8,0.6-0.8c0.5,0,0.7,0.3,0.7,0.8V17c0,0.4-0.2,0.8-0.6,0.8c-0.4,0-0.7-0.3-0.7-0.8V13.3z"/>
			<polygon class="st4" points="16.6,19.1 18.3,19.1 18.3,14.7 20.2,8.2 18.5,8.2 17.4,12.6 16.3,8.2 14.6,8.2 16.6,14.7 			"/>
		</g>
		<g>
			<path class="st4" d="M32,20.9H14.4c-1.9,0-3.4,1.5-3.4,3.4V33c0,1.9,1.5,3.4,3.4,3.4H32c1.9,0,3.4-1.5,3.4-3.4v-8.7
				C35.5,22.5,33.9,20.9,32,20.9z M16.8,33.9h-1.6V25h-1.7v-1.5h4.9V25h-1.7V33.9z M22.5,33.9H21V33c-0.3,0.3-0.5,0.5-0.8,0.7
				c-0.8,0.4-1.8,0.4-1.8-1.1v-6.4h1.4v5.9c0,0.3,0.1,0.5,0.4,0.5c0.3,0,0.7-0.4,0.8-0.6v-5.8h1.4V33.9z M27.9,32.3
				c0,0.9-0.4,1.7-1.3,1.7c-0.5,0-1-0.2-1.4-0.7v0.6h-1.4V23.5h1.4v3.3c0.3-0.4,0.8-0.7,1.3-0.7c1,0,1.4,0.9,1.4,1.9V32.3z
				 M33.2,30.2h-2.7v1.4c0,0.6,0,1.1,0.6,1.1c0.6,0,0.6-0.4,0.6-1.1v-0.5h1.5v0.6c0,1.5-0.6,2.4-2.1,2.4c-1.4,0-2.1-1-2.1-2.4v-3.4
				c0-1.3,0.9-2.3,2.2-2.3c1.4,0,2,0.9,2,2.3V30.2z"/>
			<path class="st4" d="M31.1,27.4c-0.5,0-0.6,0.4-0.6,0.9V29h1.3v-0.8C31.7,27.8,31.6,27.4,31.1,27.4z"/>
			<path class="st4" d="M25.6,27.4c-0.1,0.1-0.2,0.1-0.3,0.2v4.8c0.1,0.1,0.2,0.2,0.3,0.3c0.2,0.1,0.6,0.1,0.7-0.1
				c0.1-0.1,0.1-0.3,0.1-0.5v-4c0-0.3-0.1-0.5-0.2-0.6C26.2,27.3,25.8,27.3,25.6,27.4z"/>
		</g>
	</g>
</g>
</svg>
